20409J8014AA0101S9378SAC,9,APR,7201STRIKE          ALARC L,IGHT       0019460THTHAIL        WHISKEY 884,AL716               USAF,SAC,1401,D    ARFREFNR,Y       VNN VIET0,000186665N1057166EJBT910STRIKE,B-52,D006021700 U TAPAO   20102010,MMSQ                     937301,A1866N10571E1866N10571E1868N10573E1866N10573E,,,,,BMB,004750 GP0252000000
20409J8014AA0101S9378SAC,9,APR,7201STRIKE          ALARC L,IGHT       0019460THTHAIL        WHISKEY 884,AL716               USAF,SAC,1401,D    ARFREFNR,Y       VNN VIET0,000186665N1057166EJBT910STRIKE,B-52,D006021700 U TAPAO   20102010,MMSQ                     937301,,,,,,MB 500L,093MK82 B0144000000
20409J8015 A4301S9338SAC,9,APR,7243AIR REFUEL,THTHAIL JUSAF  YOUNG TIGER,USAF,SAC,1501,S,,000000000S0000000WJBTZP0AIR REFUEL,KC-13,5 A031135800 U TAPAO,JUSAF  JUSAF  933301,S000000S0000000W000000S0000000W,,,76,FFUELS,,
20409J8015 B4301S9338SAC,9,APR,7243AIR REFUEL,THTHAIL JUSAF  YOUNG TIGER,USAF,SAC,1501,S,,000000000S0000000WJBTZP0AIR REFUEL,KC-13,5 A023000000MTH,JUSAF  JUSAF  933300,S000000S0000000W000000S0000000W,,,,,,
20409J8015 C4301S9338SAC,9,APR,7243AIR REFUEL,THTHAIL JUSAF  YOUNG TIGER,USAF,SAC,1501,S,,000000000S0000000WJBTZP0AIR REFUEL,KC-13,5 A000000000MTH,JUSAF  JUSAF  933300,S000000S0000000W000000S0000000W,,,,,,
20409J8015 D4301S9338SAC,9,APR,7243AIR REFUEL,THTHAIL JUSAF  YOUNG TIGER,USAF,SAC,1501,S,,000000000S0000000WJBTZP0AIR REFUEL,KC-13,5 A003000000MRT,JUSAF  JUSAF  933300,S000000S0000000W000000S0000000W,,,,,,
20409J8015 E4301S9338SAC,9,APR,7243AIR REFUEL,THTHAIL JUSAF  YOUNG TIGER,USAF,SAC,1501,S,,000000000S0000000WJBTZP0AIR REFUEL,KC-13,5 A005000000MEW,JUSAF  JUSAF  933300,S000000S0000000W000000S0000000W,,,,,,
20409J8016AA0101S9378SAC,9,APR,7201STRIKE          ALARC L,IGHT       0019461THTHAIL        WHISKEY 891,AL763               USAF,SAC,1601,D    ARFREFNR,Y       VNN VIET0,000186831N1056499EJBT910STRIKE,B-52,D006024400 U TAPAO   20192019,MMSQ                     937301,A1868N10565E1866N10566E1868N10568E1870N10566E,,,,,BMB,004750 GP0168000000
20409J8016AA0101S9378SAC,9,APR,7201STRIKE          ALARC L,IGHT       0019461THTHAIL        WHISKEY 891,AL763               USAF,SAC,1601,D    ARFREFNR,Y       VNN VIET0,000186831N1056499EJBT910STRIKE,B-52,D006024400 U TAPAO   20192019,MMSQ                     937301,,,,,,MB 500L,093MK82 B0096000000
20409J8016AA0101S9378SAC,9,APR,7201STRIKE          ALARC L,IGHT       0019461THTHAIL        WHISKEY 891,AL763               USAF,SAC,1601,D    ARFREFNR,Y       VNN VIET0,000186831N1056499EJBT910STRIKE,B-52,D006024400 U TAPAO   20192019,MMSQ                     937301,,,,,,,183CBU-490132000000
20409J8017AA0301S9348SAC,9,APR,7203AIR INTERDICT   ALARC L,IGHT       0019462GUGUAM         WHISKEY 899,AL715               USAF,SAC,1701,D    AARAREA,VSS VIET321,000116831N1065833EJBT910AIR INTERD,ICT  B-52,D003034500 ANDERSEN  21262126,MMSQ                     934301,A1168N10658E1168N10658E1166N10656E1168N10656E,,,,,BMB,004750 GP0125000001
20409J8017AA0301S9348SAC,9,APR,7203AIR INTERDICT   ALARC L,IGHT       0019462GUGUAM         WHISKEY 899,AL715               USAF,SAC,1701,D    AARAREA,VSS VIET321,000116831N1065833EJBT910AIR INTERD,ICT  B-52,D003034500 ANDERSEN  21262126,MMSQ                     934301,,,,,,MB 500L,093MK82 B0072000000
20409J8018AA0301S9348SAC,9,APR,7203AIR INTERDICT   ALARC L,IGHT       0019463THTHAIL        WHISKEY 714,USAF,SAC,1801,ATSTROOP,UNK #  LAS VIET101,73211000166333N1070999EJBT910AIR INTERD,ICT  B-52,D003009500 U TAPAO   23502350,MMSQ                     934301,A1915N10289E1915N10291E1916N10289E1915N10290E,,,,,BMB,004750 GP0126000000
20409J8018AA0301S9348SAC,9,APR,7203AIR INTERDICT   ALARC L,IGHT       0019463THTHAIL        WHISKEY 714,USAF,SAC,1801,ATSTROOP,UNK #  LAS VIET101,73211000166333N1070999EJBT910AIR INTERD,ICT  B-52,D003009500 U TAPAO   23502350,MMSQ                     934301,,,,,,MB 500L,093MK82 B0072000000
20410J8001AA0301S9348SAC,10,APR,7203AIR INTERDICT   ALARC L,IGHT       0019464GUGUAM         WHISKEY 819,AL826               USAF,SAC,101,D    AARAREA,VSS VIET321,000116831N1066333EJBT910AIR INTERD,ICT  B-52,D003030600 ANDERSEN  01160116,MMSQ                     934301,A1168N10663E1168N10665E1166N10665E1166N10663E,,,,,BMB,004750 GP0126000000
20410J8001AA0301S9348SAC,10,APR,7203AIR INTERDICT   ALARC L,IGHT       0019464GUGUAM         WHISKEY 819,AL826               USAF,SAC,101,D    AARAREA,VSS VIET321,000116831N1066333EJBT910AIR INTERD,ICT  B-52,D003030600 ANDERSEN  01160116,MMSQ                     934301,,,,,,MB 500L,093MK82 B0072000000
20410J8002AA0301S9348SAC,10,APR,7203AIR INTERDICT   ALARC L,IGHT       0019465THTHAIL        WHISKEY 876,USAF,SAC,201,ATSTROOP,UNK #  LAS VIET101,73211000167998N1069832EJBT910AIR INTERD,ICT  B-52,D003009900 U TAPAO   02140214,MMSQ                     934301,A1913N10294E1914N10297E1914N10294E1911N10297E,,,,,BMB,004750 GP0126000000
20410J8002AA0301S9348SAC,10,APR,7203AIR INTERDICT   ALARC L,IGHT       0019465THTHAIL        WHISKEY 876,USAF,SAC,201,ATSTROOP,UNK #  LAS VIET101,73211000167998N1069832EJBT910AIR INTERD,ICT  B-52,D003009900 U TAPAO   02140214,MMSQ                     934301,,,,,,MB 500L,093MK82 B0072000000
20410J8003AA0301S9348SAC,10,APR,7203AIR INTERDICT   ALARC L,IGHT       0019466GUGUAM         WHISKEY 886,AL802               USAF,SAC,301,D    AARAREA,VSS VIET321,000116831N1066333EJBT910AIR INTERD,ICT  B-52,D003035700 ANDERSEN  03390339,MMSQ                     934301,A1168N10663E1170N10665E1168N10665E1168N10663E,,,,,BMB,004750 GP0126000000
20410J8003AA0301S9348SAC,10,APR,7203AIR INTERDICT   ALARC L,IGHT       0019466GUGUAM         WHISKEY 886,AL802               USAF,SAC,301,D    AARAREA,VSS VIET321,000116831N1066333EJBT910AIR INTERD,ICT  B-52,D003035700 ANDERSEN  03390339,MMSQ                     934301,,,,,,MB 500L,093MK82 B0072000000
20410J8004AA0301S9348SAC,10,APR,7203AIR INTERDICT   ALARC L,IGHT       0019467THTHAIL        WHISKEY 823,AL827               USAF,SAC,401,D    AARAREA,VSS VIET321,000116831N1066499EJBT910AIR INTERD,ICT  B-52,D003010000 U TAPAO   04390439,MMSQ                     934301,A1168N10665E1170N10665E1168N10666E1168N10666E,,,,,BMB,004750 GP0126000000
20410J8004AA0301S9348SAC,10,APR,7203AIR INTERDICT   ALARC L,IGHT       0019467THTHAIL        WHISKEY 823,AL827               USAF,SAC,401,D    AARAREA,VSS VIET321,000116831N1066499EJBT910AIR INTERD,ICT  B-52,D003010000 U TAPAO   04390439,MMSQ                     934301,,,,,,MB 500L,093MK82 B0072000000
20410J8005AA0301S9348SAC,10,APR,7203AIR INTERDICT   ALARC L,IGHT       0019468THTHAIL        WHISKEY 898,AL852               USAF,SAC,501,D    AARAREA,VSS VIET206,000144666N1079832EJBT910AIR INTERD,ICT  B-52,D003009700 U TAPAO   05550555,MMSQ                     934301,A1446N10798E1446N10800E1448N10800E1448N10801E,,,,,BMB,004750 GP0126000000
20410J8005AA0301S9348SAC,10,APR,7203AIR INTERDICT   ALARC L,IGHT       0019468THTHAIL        WHISKEY 898,AL852               USAF,SAC,501,D    AARAREA,VSS VIET206,000144666N1079832EJBT910AIR INTERD,ICT  B-52,D003009700 U TAPAO   05550555,MMSQ                     934301,,,,,,MB 500L,093MK82 B0072000000
20410J8006AA0301S9348SAC,10,APR,7203AIR INTERDICT   ALARC L,IGHT       0019469GUGUAM         WHISKEY 887,AL877               USAF,SAC,601,D    ATSTROOP,UNK #  VSS VIET206,000147166N1077998EJBT910AIR INTERD,ICT  B-52,D003034700 ANDERSEN  07370737,MMSQ                     934301,A1471N10780E1473N10776E1471N10778E1473N10776E,,,,,BMB,004750 GP0126000000
20410J8006AA0301S9348SAC,10,APR,7203AIR INTERDICT   ALARC L,IGHT       0019469GUGUAM         WHISKEY 887,AL877               USAF,SAC,601,D    ATSTROOP,UNK #  VSS VIET206,000147166N1077998EJBT910AIR INTERD,ICT  B-52,D003034700 ANDERSEN  07370737,MMSQ                     934301,,,,,,MB 500L,093MK82 B0072000000
20410J8007AA0301S9348SAC,10,APR,7203AIR INTERDICT   ALARC L,IGHT       0019470THTHAIL        WHISKEY 824,AL835               USAF,SAC,701,D    AARAREA,VSS VIET102,000162998N1073499EJBT910AIR INTERD,ICT  B-52,D003009700 U TAPAO   09300930,MMSQ                     934301,A1630N10735E1628N10738E1628N10736E1630N10735E,,,,,BMB,004750 GP0126000000
20410J8007AA0301S9348SAC,10,APR,7203AIR INTERDICT   ALARC L,IGHT       0019470THTHAIL        WHISKEY 824,AL835               USAF,SAC,701,D    AARAREA,VSS VIET102,000162998N1073499EJBT910AIR INTERD,ICT  B-52,D003009700 U TAPAO   09300930,MMSQ                     934301,,,,,,MB 500L,093MK82 B0072000000
20410J8008AA0301S9348SAC,10,APR,7203AIR INTERDICT   ALARC L,IGHT       0019471GUGUAM         WHISKEY 829,AL860               USAF,SAC,801,D    ABVBIVOU,AC      VSS VIET206,000147500N1077832EJBT910AIR INTERD,ICT  B-52,D003032200 ANDERSEN  11071107,MMSQ                     934301,A1475N10778E1475N10776E1476N10776E1476N10778E,,,,,BMB,004750 GP0124000002
20410J8008AA0301S9348SAC,10,APR,7203AIR INTERDICT   ALARC L,IGHT       0019471GUGUAM         WHISKEY 829,AL860               USAF,SAC,801,D    ABVBIVOU,AC      VSS VIET206,000147500N1077832EJBT910AIR INTERD,ICT  B-52,D003032200 ANDERSEN  11071107,MMSQ                     934301,,,,,,MB 500L,093MK82 B0072000000
20410J8009AA0301S9348SAC,10,APR,7203AIR INTERDICT   ALARC L,IGHT       0019472THTHAIL        WHISKEY 977,AL885               USAF,SAC,901,D    AARAREA,VSS VIET101,000166665N1071165EJBT910AIR INTERD,ICT  B-52,D003009400 U TAPAO   11511151,MMSQ                     934301,A1666N10711E1668N10711E1668N10708E1668N10708E,,,,,BMB,004750 GP0126000000
20410J8009AA0301S9348SAC,10,APR,7203AIR INTERDICT   ALARC L,IGHT       0019472THTHAIL        WHISKEY 977,AL885               USAF,SAC,901,D    AARAREA,VSS VIET101,000166665N1071165EJBT910AIR INTERD,ICT  B-52,D003009400 U TAPAO   11511151,MMSQ                     934301,,,,,,MB 500L,093MK82 B0072000000
20410J8010AA0301S9348SAC,10,APR,7203AIR INTERDICT   ALARC L,IGHT       0019473THTHAIL        WHISKEY 723,AL821               USAF,SAC,1001,D    AARAREA,VSS VIET206,000145000N1076665EJBT910AIR INTERD,ICT  B-52,D003011300 U TAPAO   14081408,MMSQ                     934301,A1450N10766E1450N10765E1451N10763E1451N10768E,,,,,BMB,004750 GP0126000000
20410J8010AA0301S9348SAC,10,APR,7203AIR INTERDICT   ALARC L,IGHT       0019473THTHAIL        WHISKEY 723,AL821               USAF,SAC,1001,D    AARAREA,VSS VIET206,000145000N1076665EJBT910AIR INTERD,ICT  B-52,D003011300 U TAPAO   14081408,MMSQ                     934301,,,,,,MB 500L,093MK82 B0072000000
20410J8011AA0301S9478SAC,10,APR,7203AIR INTERDICT   ALARC L,IGHT       0019474THTHAIL        WHISKEY 799,AL846               USAF,SAC,1101,D    AARAREA,VSS VIET206,001145000N1076499EJBT910AIR INTERD,ICT  B-52,D003006100 U TAPAO   14411441,MMSQ                     947301,A1450N10765E1451N10765E1451N10766E1450N10768E,FFRDLYNO,OTOTHER,010000S00000W                         0ENR,T TGT                         A,BMB,004750 GP0084042000
20410J8011AA0301S9478SAC,10,APR,7203AIR INTERDICT   ALARC L,IGHT       0019474THTHAIL        WHISKEY 799,AL846               USAF,SAC,1101,D    AARAREA,VSS VIET206,001145000N1076499EJBT910AIR INTERD,ICT  B-52,D003006100 U TAPAO   14411441,MMSQ                     947301,,,,,,MB 500L,093MK82 B0048024000
20410J8012AA0301S9348SAC,10,APR,7203AIR INTERDICT   ALARC L,IGHT       0019475THTHAIL        WHISKEY 906,AL871               USAF,SAC,1201,D    AARAREA,VSS VIET206,000147666N1077332EJBT910AIR INTERD,ICT  B-52,D003009400 U TAPAO   15251525,MMSQ                     934301,A1476N10773E1476N10775E1478N10776E1478N10776E,,,,,BMB,004750 GP0108000000
20410J8012AA0301S9348SAC,10,APR,7203AIR INTERDICT   ALARC L,IGHT       0019475THTHAIL        WHISKEY 906,AL871               USAF,SAC,1201,D    AARAREA,VSS VIET206,000147666N1077332EJBT910AIR INTERD,ICT  B-52,D003009400 U TAPAO   15251525,MMSQ                     934301,,,,,,MB 500L,093MK82 B0132000000
20410J8013AA0301S9348SAC,10,APR,7203AIR INTERDICT   ALARC L,IGHT       0019476THTHAIL        WHISKEY 962,AL896               USAF,SAC,1301,D    AARAREA,VSS VIET101,000147832N1077500EJBT910AIR INTERD,ICT  B-52,D003009300 U TAPAO   16391639,MMSQ                     934301,A1478N10775E1478N10776E1475N10775E1475N10776E,,,,,BMB,004750 GP0126000000
20410J8013AA0301S9348SAC,10,APR,7203AIR INTERDICT   ALARC L,IGHT       0019476THTHAIL        WHISKEY 962,AL896               USAF,SAC,1301,D    AARAREA,VSS VIET101,000147832N1077500EJBT910AIR INTERD,ICT  B-52,D003009300 U TAPAO   16391639,MMSQ                     934301,,,,,,MB 500L,093MK82 B0072000000
20410J8014AA0301S9348SAC,10,APR,7203AIR INTERDICT   ALARC L,IGHT       0019477GUGUAM         WHISKEY 935,AL815               USAF,SAC,1401,D    AARAREA,VSS VIET206,000146831N1077832EJBT910AIR INTERD,ICT  B-52,D002022900 ANDERSEN  17511751,MMSQ                     934301,A1468N10778E1468N10781E1470N10781E1470N10778E,,,,,BMB,004750 GP0084000000
20410J8014AA0301S9348SAC,10,APR,7203AIR INTERDICT   ALARC L,IGHT       0019477GUGUAM         WHISKEY 935,AL815               USAF,SAC,1401,D    AARAREA,VSS VIET206,000146831N1077832EJBT910AIR INTERD,ICT  B-52,D002022900 ANDERSEN  17511751,MMSQ                     934301,,,,,,MB 500L,093MK82 B0048000000
20410J8015AA0301S9348SAC,10,APR,7203AIR INTERDICT   ALARC L,IGHT       0019478THTHAIL        WHISKEY 733,AL840               USAF,SAC,1501,D    ATSTROOP,UNK #  VSS VIET206,000146333N1079500EJBT910AIR INTERD,ICT  B-52,D003011100 U TAPAO   19311931,MMSQ                     934301,A1463N10795E1463N10796E1916N10740E1465N10800E,,,,,BMB,004750 GP0084000000
20410J8015AA0301S9348SAC,10,APR,7203AIR INTERDICT   ALARC L,IGHT       0019478THTHAIL        WHISKEY 733,AL840               USAF,SAC,1501,D    ATSTROOP,UNK #  VSS VIET206,000146333N1079500EJBT910AIR INTERD,ICT  B-52,D003011100 U TAPAO   19311931,MMSQ                     934301,,,,,,MB 500L,093MK82 B0047000001
20410J8015AA0301S9348SAC,10,APR,7203AIR INTERDICT   ALARC L,IGHT       0019478THTHAIL        WHISKEY 733,AL840               USAF,SAC,1501,D    ATSTROOP,UNK #  VSS VIET206,000146333N1079500EJBT910AIR INTERD,ICT  B-52,D003011100 U TAPAO   19311931,MMSQ                     934301,,,,,,,127CBU-240024000000
20410J8015AA0301S9348SAC,10,APR,7203AIR INTERDICT   ALARC L,IGHT       0019478THTHAIL        WHISKEY 733,AL840               USAF,SAC,1501,D    ATSTROOP,UNK #  VSS VIET206,000146333N1079500EJBT910AIR INTERD,ICT  B-52,D003011100 U TAPAO   19311931,MMSQ                     934301,,,,,,,183CBU-490042000000
20410J8016AA0301S9348SAC,10,APR,7203AIR INTERDICT   ALARC L,IGHT       0019479THTHAIL        WHISKEY 905,AL865               USAF,SAC,1601,D    AARAREA,VSS VIET102,000163665N1074500EJBT910AIR INTERD,ICT  B-52,D003009900 U TAPAO   20152015,MMSQ                     934301,A1636N10745E1636N10745E1638N10743E1638N10741E,,,,,BMB,004750 GP0108000000
20410J8016AA0301S9348SAC,10,APR,7203AIR INTERDICT   ALARC L,IGHT       0019479THTHAIL        WHISKEY 905,AL865               USAF,SAC,1601,D    AARAREA,VSS VIET102,000163665N1074500EJBT910AIR INTERD,ICT  B-52,D003009900 U TAPAO   20152015,MMSQ                     934301,,,,,,MB 500L,093MK82 B0132000000
20410J8017 A4301S9348SAC,10,APR,7243AIR REFUEL,THTHAIL JUSAF  YOUNG TIGER,USAF,SAC,1701,S,,000000000S0000000WJBTZP0AIR REFUEL,KC-13,5 A046200900 U TAPAO,JUSAF  JUSAF  934301,S000000S0000000W000000S0000000W,,,76,FFUELS,,
20410J8017 B4201S9348SAC,10,APR,7243AIR REFUEL,THTHAIL JUSAF  YOUNG TIGER,USAF,SAC,1701,S,,000000000S0000000WJBTZP0SRCH RESC,KC-13,5 A039000000MTH,JUSAF  JUSAF  934300,S000000S0000000W000000S0000000W,,,,,,
20410J8017 C4201S9348SAC,10,APR,7243AIR REFUEL,THTHAIL JUSAF  YOUNG TIGER,USAF,SAC,1701,S,,000000000S0000000WJBTZP0SRCH RESC,KC-13,5 A000000000MTH,JUSAF  JUSAF  934300,S000000S0000000W000000S0000000W,,,,,,
20410J8017 D4201S9348SAC,10,APR,7243AIR REFUEL,THTHAIL JUSAF  YOUNG TIGER,USAF,SAC,1701,S,,000000000S0000000WJBTZP0SRCH RESC,KC-13,5 A000000000MTH,JUSAF  JUSAF  934300,S000000S0000000W000000S0000000W,,,,,,
20410J8017 E4201S9348SAC,10,APR,7243AIR REFUEL,THTHAIL JUSAF  YOUNG TIGER,USAF,SAC,1701,S,,000000000S0000000WJBTZP0SRCH RESC,KC-13,5 A002000000MRT,JUSAF  JUSAF  934300,S000000S0000000W000000S0000000W,,,,,,
20410J8017 F4201S9348SAC,10,APR,7243AIR REFUEL,THTHAIL JUSAF  YOUNG TIGER,USAF,SAC,1701,S,,000000000S0000000WJBTZP0SRCH RESC,KC-13,5 A005000000MEW,JUSAF  JUSAF  934300,S000000S0000000W000000S0000000W,,,,,,
20410J8018AA0301S9358SAC,10,APR,7203AIR INTERDICT   ALARC L,IGHT       0019480GUGUAM         WHISKEY 980,AL890               USAF,SAC,1801,D    AARAREA,VSS VIET102,000163333N1074331EJBT910AIR INTERD,ICT  B-52,D003035200 ANDERSEN  21262126,MMSQ                     935301,A1633N10743E1633N10743E1636N10741E1636N10741E,,,,,BMB,004750 GP0126000000
20410J8018AA0301S9358SAC,10,APR,7203AIR INTERDICT   ALARC L,IGHT       0019480GUGUAM         WHISKEY 980,AL890               USAF,SAC,1801,D    AARAREA,VSS VIET102,000163333N1074331EJBT910AIR INTERD,ICT  B-52,D003035200 ANDERSEN  21262126,MMSQ                     935301,,,,,,MB 500L,093MK82 B0072000000
20410J8019AA0301S9358SAC,10,APR,7203AIR INTERDICT   ALARC L,IGHT       0019481THTHAIL        WHISKEY 894,AL850               USAF,SAC,1901,D    ATSTROOP,UNK #  VSS VIET206,000145000N1076831EJBT910AIR INTERD,ICT  B-52,D003011500 U TAPAO   23132313,MMSQ                     935301,A1450N10768E1448N10766E1446N10768E1448N10770E,,,,,BMB,004750 GP0090000000
20410J8019AA0301S9358SAC,10,APR,7203AIR INTERDICT   ALARC L,IGHT       0019481THTHAIL        WHISKEY 894,AL850               USAF,SAC,1901,D    ATSTROOP,UNK #  VSS VIET206,000145000N1076831EJBT910AIR INTERD,ICT  B-52,D003011500 U TAPAO   23132313,MMSQ                     935301,,,,,,MB 500L,093MK82 B0192000000
20410J8020AA0301S9358SAC,10,APR,7203AIR INTERDICT   ALARC L,IGHT       0019482THTHAIL        WHISKEY 925,AL875               USAF,SAC,2001,D    AARAREA,VSS VIET102,000162998N1073999EJBT910AIR INTERD,ICT  B-52,D003012600 U TAPAO   23492349,MMSQ                     935301,A1630N10740E1631N10740E1628N10738E1628N10738E,,,,,BMB,004750 GP0126000000
20410J8020AA0301S9358SAC,10,APR,7203AIR INTERDICT   ALARC L,IGHT       0019482THTHAIL        WHISKEY 925,AL875               USAF,SAC,2001,D    AARAREA,VSS VIET102,000162998N1073999EJBT910AIR INTERD,ICT  B-52,D003012600 U TAPAO   23492349,MMSQ                     935301,,,,,,MB 500L,093MK82 B0072000000
20411J8001AA0301S9358SAC,11,APR,7203AIR INTERDICT   ALARC L,IGHT       0019483GUGUAM         WHISKEY 943,AL805               USAF,SAC,101,D    AARAREA,VSS VIET102,000162332N1074165EJBT910AIR INTERD,ICT  B-52,D003035000 ANDERSEN  01050105,MMSQ                     935301,A1623N10741E1623N10741E1621N10740E1621N10738E,,,,,BMB,004750 GP0126000000
20411J8001AA0301S9358SAC,11,APR,7203AIR INTERDICT   ALARC L,IGHT       0019483GUGUAM         WHISKEY 943,AL805               USAF,SAC,101,D    AARAREA,VSS VIET102,000162332N1074165EJBT910AIR INTERD,ICT  B-52,D003035000 ANDERSEN  01050105,MMSQ                     935301,,,,,,MB 500L,093MK82 B0072000000
20411J8002AA0301S9358SAC,11,APR,7203AIR INTERDICT   ALARC L,IGHT       0019484THTHAIL        WHISKEY 960,AL879               USAF,SAC,201,D    AARAREA,VSS VIET102,000163167N1074832EJBT910AIR INTERD,ICT  B-52,D003010300 U TAPAO   02150215,MMSQ                     935301,A1631N10748E1631N10748E1631N10745E1631N10745E,,,,,BMB,004750 GP0126000000
20411J8002AA0301S9358SAC,11,APR,7203AIR INTERDICT   ALARC L,IGHT       0019484THTHAIL        WHISKEY 960,AL879               USAF,SAC,201,D    AARAREA,VSS VIET102,000163167N1074832EJBT910AIR INTERD,ICT  B-52,D003010300 U TAPAO   02150215,MMSQ                     935301,,,,,,MB 500L,093MK82 B0072000000
20411J8003AA0301S9358SAC,11,APR,7203AIR INTERDICT   ALARC L,IGHT       0019485GUGUAM         WHISKEY 747,AL832               USAF,SAC,301,D    ATSTROOP,UNK #  VSS VIET206,000145166N1080332EJBT910AIR INTERD,ICT  B-52,D003035500 ANDERSEN  03420342,MMSQ                     935301,A1451N10803E1451N10805E1451N10806E1450N10803E,,,,,BMB,004750 GP0126000000
20411J8003AA0301S9358SAC,11,APR,7203AIR INTERDICT   ALARC L,IGHT       0019485GUGUAM         WHISKEY 747,AL832               USAF,SAC,301,D    ATSTROOP,UNK #  VSS VIET206,000145166N1080332EJBT910AIR INTERD,ICT  B-52,D003035500 ANDERSEN  03420342,MMSQ                     935301,,,,,,MB 500L,093MK82 B0070000002
20411J8004AA0301S9358SAC,11,APR,7203AIR INTERDICT   ALARC L,IGHT       0019486THTHAIL        WHISKEY 991,AL807               USAF,SAC,401,D    AARAREA,VSS VIET101,000166831N1070332EJBT910AIR INTERD,ICT  B-52,D003010600 U TAPAO   04440444,MMSQ                     935301,A1668N10703E1668N10706E1668N10706E1668N10703E,,,,,BMB,004750 GP0126000000
20411J8004AA0301S9358SAC,11,APR,7203AIR INTERDICT   ALARC L,IGHT       0019486THTHAIL        WHISKEY 991,AL807               USAF,SAC,401,D    AARAREA,VSS VIET101,000166831N1070332EJBT910AIR INTERD,ICT  B-52,D003010600 U TAPAO   04440444,MMSQ                     935301,,,,,,MB 500L,093MK82 B0072000000
20411J8005AA0301S9358SAC,11,APR,7203AIR INTERDICT   ALARC L,IGHT       0019487THTHAIL        WHISKEY 967,AL883               USAF,SAC,501,D    AARAREA,VSS VIET101,000167998N1070498EJBT910AIR INTERD,ICT  B-52,D003009900 U TAPAO   05550555,MMSQ                     935301,A1680N10705E1680N10703E1680N10703E1681N10705E,,,,,BMB,004750 GP0126000000
20411J8005AA0301S9358SAC,11,APR,7203AIR INTERDICT   ALARC L,IGHT       0019487THTHAIL        WHISKEY 967,AL883               USAF,SAC,501,D    AARAREA,VSS VIET101,000167998N1070498EJBT910AIR INTERD,ICT  B-52,D003009900 U TAPAO   05550555,MMSQ                     935301,,,,,,MB 500L,093MK82 B0072000000
20411J8006AA0301S9358SAC,11,APR,7203AIR INTERDICT   ALARC L,IGHT       0019488GUGUAM         WHISKEY 772,AL834               USAF,SAC,601,D    ABLBLDG,VSS VIET206,000145166N1080166EJBT910AIR INTERD,ICT  B-52,D003039000 ANDERSEN  08200820,MMSQ                     935301,A1451N10801E1450N10801E1451N10805E1451N10805E,,,,,BMB,004750 GP0126000000
20411J8006AA0301S9358SAC,11,APR,7203AIR INTERDICT   ALARC L,IGHT       0019488GUGUAM         WHISKEY 772,AL834               USAF,SAC,601,D    ABLBLDG,VSS VIET206,000145166N1080166EJBT910AIR INTERD,ICT  B-52,D003039000 ANDERSEN  08200820,MMSQ                     935301,,,,,,MB 500L,093MK82 B0071000001
20411J8007AA0301S9358SAC,11,APR,7203AIR INTERDICT   ALARC L,IGHT       0019489THTHAIL        WHISKEY 779,AL812               USAF,SAC,701,D    AARAREA,VSS VIET206,000143499N1076333EJBT910AIR INTERD,ICT  B-52,D003010900 U TAPAO   08420842,MMSQ                     935301,A1435N10763E1436N10763E1435N10763E1436N10763E,,,,,BMB,004750 GP0106000000
20411J8007AA0301S9358SAC,11,APR,7203AIR INTERDICT   ALARC L,IGHT       0019489THTHAIL        WHISKEY 779,AL812               USAF,SAC,701,D    AARAREA,VSS VIET206,000143499N1076333EJBT910AIR INTERD,ICT  B-52,D003010900 U TAPAO   08420842,MMSQ                     935301,,,,,,MB 500L,093MK82 B0132000002
20411J8008AA0301S9358SAC,11,APR,7203AIR INTERDICT   ALARC L,IGHT       0019490THTHAIL        WHISKEY 863,USAF,SAC,801,AARAREA,LAS VIET101,73211000168499N1069832EJBT910AIR INTERD,ICT  B-52,D003009400 U TAPAO   09300930,MMSQ                     935301,A1913N10294E1913N10297E1914N10295E1912N10297E,,,,,BMB,004750 GP0126000000
20411J8008AA0301S9358SAC,11,APR,7203AIR INTERDICT   ALARC L,IGHT       0019490THTHAIL        WHISKEY 863,USAF,SAC,801,AARAREA,LAS VIET101,73211000168499N1069832EJBT910AIR INTERD,ICT  B-52,D003009400 U TAPAO   09300930,MMSQ                     935301,,,,,,MB 500L,093MK82 B0072000000
20411J8009AA0301S9358SAC,11,APR,7203AIR INTERDICT   ALARC L,IGHT       0019491GUGUAM         WHISKEY 783,AL941               USAF,SAC,901,D    AARAREA,VSS VIET206,000143665N1076499EJBT910AIR INTERD,ICT  B-52,D003036300 ANDERSEN  11101111,MMSQ                     935301,A1436N10765E1436N10763E1436N10763E1438N10765E                                                                                                                                     ARCRW  TPQ/MSQ01     +30M,ARSGSTAGE AREA   ASEC/EXP01,,,,BMB,004750 GP0126000000
20411J8009AA0301S9358SAC,11,APR,7203AIR INTERDICT   ALARC L,IGHT       0019491GUGUAM         WHISKEY 783,AL941               USAF,SAC,901,D    AARAREA,VSS VIET206,000143665N1076499EJBT910AIR INTERD,ICT  B-52,D003036300 ANDERSEN  11101111,MMSQ                     935301,,,,,,MB 500L,093MK82 B0072000000
20411J8010AA0301S9358SAC,11,APR,7203AIR INTERDICT   ALARC L,IGHT       0019492THTHAIL        WHISKEY 989,AL814               USAF,SAC,1001,D    ATSTROOP,UNK #  VSS VIET206,000147832N1077998EJBT910AIR INTERD,ICT  B-52,D003009700 U TAPAO   11511151,MMSQ                     935301,A1478N10780E1478N10781E1480N10781E1480N10781E,,,,,BMB,004750 GP0126000000
20411J8010AA0301S9358SAC,11,APR,7203AIR INTERDICT   ALARC L,IGHT       0019492THTHAIL        WHISKEY 989,AL814               USAF,SAC,1001,D    ATSTROOP,UNK #  VSS VIET206,000147832N1077998EJBT910AIR INTERD,ICT  B-52,D003009700 U TAPAO   11511151,MMSQ                     935301,,,,,,MB 500L,093MK82 B0072000000
20411J8011AA0301S9358SAC,11,APR,7203AIR INTERDICT   ALARC L,IGHT       0019493THTHAIL        WHISKEY 910,AL866               USAF,SAC,1101,D    ATSTROOP,UNK #  VSS VIET206,000147166N1077832EJBT910AIR INTERD,ICT  B-52,D003008500 U TAPAO   13051305,MMSQ                     935301,A1471N10778E1473N10778E1471N10780E1471N10780E                                                                                                                                     ARCRW  TPQ/MSQ01     +30M,TS  TROOP UNK #  ASEC/EXP01,,,,BMB,004750 GP0126000000
20411J8011AA0301S9358SAC,11,APR,7203AIR INTERDICT   ALARC L,IGHT       0019493THTHAIL        WHISKEY 910,AL866               USAF,SAC,1101,D    ATSTROOP,UNK #  VSS VIET206,000147166N1077832EJBT910AIR INTERD,ICT  B-52,D003008500 U TAPAO   13051305,MMSQ                     935301,,,,,,MB 500L,093MK82 B0072000000
20411J8012AA0301S9358SAC,11,APR,7203AIR INTERDICT   ALARC L,IGHT       0019494GUGUAM         WHISKEY 986,AL816               USAF,SAC,1201,D    ATSTROOP,UNK #  VSS VIET206,000147332N1078665EJBT910AIR INTERD,ICT  B-52,D003035000 ANDERSEN  14051405,MMSQ                     935301,A1473N10786E1473N10785E1471N10788E1471N10788E,,,,,BMB,004750 GP0125000001
20411J8012AA0301S9358SAC,11,APR,7203AIR INTERDICT   ALARC L,IGHT       0019494GUGUAM         WHISKEY 986,AL816               USAF,SAC,1201,D    ATSTROOP,UNK #  VSS VIET206,000147332N1078665EJBT910AIR INTERD,ICT  B-52,D003035000 ANDERSEN  14051405,MMSQ                     935301,,,,,,MB 500L,093MK82 B0072000000
20411J8013AA0301S9358SAC,11,APR,7203AIR INTERDICT   ALARC L,IGHT       0019495THTHAIL        WHISKEY 843,USAF,SAC,1301,AARAREA,VSS VIET206,000145833N1077332EJBT910AIR INTERD,ICT  B-52,D003008400 U TAPAO   15241524,MMSQ                     935301,A1458N10773E1456N10771E1455N10773E1455N10773E,,,,,BMB,004750 GP0126000000
20411J8013AA0301S9358SAC,11,APR,7203AIR INTERDICT   ALARC L,IGHT       0019495THTHAIL        WHISKEY 843,USAF,SAC,1301,AARAREA,VSS VIET206,000145833N1077332EJBT910AIR INTERD,ICT  B-52,D003008400 U TAPAO   15241524,MMSQ                     935301,,,,,,MB 500L,093MK82 B0072000000
20411J8014AA0301S9358SAC,11,APR,7203AIR INTERDICT   ALARC L,IGHT       0019496THTHAIL        WHISKEY 961,AL868               USAF,SAC,1401,D    ATSTROOP,UNK #  VSS VIET321,000116499N1065667EJBT910AIR INTERD,ICT  B-52,D003009500 U TAPAO   16391639,MMSQ                     935301,A1165N10656E1163N10656E1166N10658E1166N10658E,,,,,BMB,004750 GP0126000000
20411J8014AA0301S9358SAC,11,APR,7203AIR INTERDICT   ALARC L,IGHT       0019496THTHAIL        WHISKEY 961,AL868               USAF,SAC,1401,D    ATSTROOP,UNK #  VSS VIET321,000116499N1065667EJBT910AIR INTERD,ICT  B-52,D003009500 U TAPAO   16391639,MMSQ                     935301,,,,,,MB 500L,093MK82 B0071000001
20411J8015AA0301S9358SAC,11,APR,7203AIR INTERDICT   ALARC L,IGHT       0019497GUGUAM         WHISKEY 963,AL893               USAF,SAC,1501,D    ATSTROOP,UNK #  VSS VIET321,000116665N1065667EJBT910AIR INTERD,ICT  B-52,D003035800 ANDERSEN  17531753,MMSQ                     935301,A1166N10656E1166N10658E1168N10658E1166N10660E,,,,,BMB,004750 GP0126000000
20411J8015AA0301S9358SAC,11,APR,7203AIR INTERDICT   ALARC L,IGHT       0019497GUGUAM         WHISKEY 963,AL893               USAF,SAC,1501,D    ATSTROOP,UNK #  VSS VIET321,000116665N1065667EJBT910AIR INTERD,ICT  B-52,D003035800 ANDERSEN  17531753,MMSQ                     935301,,,,,,MB 500L,093MK82 B0072000000
20411J8016AA0301S9358SAC,11,APR,7203AIR INTERDICT   ALARC L,IGHT       0019498THTHAIL        WHISKEY 836,AL818               USAF,SAC,1601,D    ABSBASE,VSS VIET322,000115999N1059165EJBT910AIR INTERD,ICT  B-52,D003010300 U TAPAO   19321932,MMSQ                     935301,A1160N10591E1158N10593E1161N10593E1161N10595E                                                                                                                                     ARCRW  TPQ/MSQ01     +30M,BS  BASE         ASEC/EXP01,,,,BMB,004750 GP0084000000
20411J8016AA0301S9358SAC,11,APR,7203AIR INTERDICT   ALARC L,IGHT       0019498THTHAIL        WHISKEY 836,AL818               USAF,SAC,1601,D    ABSBASE,VSS VIET322,000115999N1059165EJBT910AIR INTERD,ICT  B-52,D003010300 U TAPAO   19321932,MMSQ                     935301,,,,,,MB 500L,093MK82 B0048000000
20411J8016AA0301S9358SAC,11,APR,7203AIR INTERDICT   ALARC L,IGHT       0019498THTHAIL        WHISKEY 836,AL818               USAF,SAC,1601,D    ABSBASE,VSS VIET322,000115999N1059165EJBT910AIR INTERD,ICT  B-52,D003010300 U TAPAO   19321932,MMSQ                     935301,,,,,,,127CBU-240024000000
20411J8016AA0301S9358SAC,11,APR,7203AIR INTERDICT   ALARC L,IGHT       0019498THTHAIL        WHISKEY 836,AL818               USAF,SAC,1601,D    ABSBASE,VSS VIET322,000115999N1059165EJBT910AIR INTERD,ICT  B-52,D003010300 U TAPAO   19321932,MMSQ                     935301,,,,,,,183CBU-490049000000
20411J8017 A4301S9358SAC,11,APR,7243AIR REFUEL,THTHAIL JUSAF  YOUNG TIGER,USAF,SAC,1701,S,,000000000S0000000WJBTZP0AIR REFUEL,KC-13,5 A040179900 U TAPAO,JUSAF  JUSAF  935301,S000000S0000000W000000S0000000W,,,76,FFUELS,,
20411J8017 B4301S9358SAC,11,APR,7243AIR REFUEL,THTHAIL JUSAF  YOUNG TIGER,USAF,SAC,1701,S,,000000000S0000000WJBTZP0AIR REFUEL,KC-13,5 A032000000MTH,JUSAF  JUSAF  935300,S000000S0000000W000000S0000000W,,,,,,
20411J8017 C4301S9358SAC,11,APR,7243AIR REFUEL,THTHAIL JUSAF  YOUNG TIGER,USAF,SAC,1701,S,,000000000S0000000WJBTZP0AIR REFUEL,KC-13,5 A000000000MTH,JUSAF  JUSAF  935300,S000000S0000000W000000S0000000W,,,,,,
20411J8017 D4301S9358SAC,11,APR,7243AIR REFUEL,THTHAIL JUSAF  YOUNG TIGER,USAF,SAC,1701,S,,000000000S0000000WJBTZP0AIR REFUEL,KC-13,5 A000000000MTH,JUSAF  JUSAF  935300,S000000S0000000W000000S0000000W,,,,,,
20411J8017 E4301S9358SAC,11,APR,7243AIR REFUEL,THTHAIL JUSAF  YOUNG TIGER,USAF,SAC,1701,S,,000000000S0000000WJBTZP0AIR REFUEL,KC-13,5 A002000000MRT,JUSAF  JUSAF  935300,S000000S0000000W000000S0000000W,,,,,,
20411J8017 F4301S9358SAC,11,APR,7243AIR REFUEL,THTHAIL JUSAF  YOUNG TIGER,USAF,SAC,1701,S,,000000000S0000000WJBTZP0AIR REFUEL,KC-13,5 A006000000MEW,JUSAF  JUSAF  935300,S000000S0000000W000000S0000000W,,,,,,
20411J8018AA0301S9368SAC,11,APR,7203AIR INTERDICT   ALARC L,IGHT       0019499THTHAIL        WHISKEY 912,AL895               USAF,SAC,1801,D    ATSTROOP,UNK #  VSS VIET101,000168499N1070166EJBT910AIR INTERD,ICT  B-52,D002007400 U TAPAO   20162016,MMSQ                     936301,A1685N10701E1685N10700E1686N10700E1686N10700E,FFRDLYYES,OTOTHER,010000S00000W                         0ENR,T TGT                         A,BMB,004750 GP0084000000
20411J8018AA0301S9368SAC,11,APR,7203AIR INTERDICT   ALARC L,IGHT       0019499THTHAIL        WHISKEY 912,AL895               USAF,SAC,1801,D    ATSTROOP,UNK #  VSS VIET101,000168499N1070166EJBT910AIR INTERD,ICT  B-52,D002007400 U TAPAO   20162016,MMSQ                     936301,,,,,,MB 500L,093MK82 B0048000000
20411J8018BB0301S9368SAC,11,APR,7203AIR INTERDICT   ALARC L,IGHT       0019499THTHAIL        WHISKEY 912,AL895               USAF,SAC,1801,D    AARAREA,VSS VIET206,000143499N1076333EJBT910AIR INTERD,ICT  B-52,D001003900 U TAPAO   20502050,MMSQ                     936300,A1435N10763E1436N10763E1435N10763E1436N10763E,,,,,BMB,004750 GP0024000000
20411J8018BB0301S9368SAC,11,APR,7203AIR INTERDICT   ALARC L,IGHT       0019499THTHAIL        WHISKEY 912,AL895               USAF,SAC,1801,D    AARAREA,VSS VIET206,000143499N1076333EJBT910AIR INTERD,ICT  B-52,D001003900 U TAPAO   20502050,MMSQ                     936300,,,,,,MB 500L,093MK82 B0084000000
20411J8019AA0301S9368SAC,11,APR,7203AIR INTERDICT   ALARC L,IGHT       0019500GUGUAM         WHISKEY 995,AL870               USAF,SAC,1901,D    ATSTROOP,UNK #  VSS VIET102,000163499N1074832EJBT910AIR INTERD,ICT  B-52,D003035100 ANDERSEN  21272127,MMSQ                     936301,A1635N10748E1635N10748E1633N10750E1633N10750E,,,,,BMB,004750 GP0126000000
20411J8019AA0301S9368SAC,11,APR,7203AIR INTERDICT   ALARC L,IGHT       0019500GUGUAM         WHISKEY 995,AL870               USAF,SAC,1901,D    ATSTROOP,UNK #  VSS VIET102,000163499N1074832EJBT910AIR INTERD,ICT  B-52,D003035100 ANDERSEN  21272127,MMSQ                     936301,,,,,,MB 500L,093MK82 B0072000000
20411J8020AA0301S9368SAC,11,APR,7203AIR INTERDICT   ALARC L,IGHT       0019501THTHAIL        WHISKEY 922,AL845               USAF,SAC,2001,D    ATSTROOP,UNK #  VSS VIET321,000116499N1065833EJBT910AIR INTERD,ICT  B-52,D003008800 U TAPAO   22362236,MMSQ                     936301,A1165N10658E1165N10658E1161N10658E1161N10658E,,,,,BMB,004750 GP0125000001
20411J8020AA0301S9368SAC,11,APR,7203AIR INTERDICT   ALARC L,IGHT       0019501THTHAIL        WHISKEY 922,AL845               USAF,SAC,2001,D    ATSTROOP,UNK #  VSS VIET321,000116499N1065833EJBT910AIR INTERD,ICT  B-52,D003008800 U TAPAO   22362236,MMSQ                     936301,,,,,,MB 500L,093MK82 B0072000000
20412J8001AA0301S9368SAC,12,APR,7203AIR INTERDICT   ALARC L,IGHT       0019502THTHAIL        WHISKEY 897,AL820               USAF,SAC,101,D    AARAREA,VSS VIET206,000142666N1075999EJBT910AIR INTERD,ICT  B-52,D003018300 U TAPAO   00180018,MMSQ                     936301,A1426N10760E1428N10760E1428N10763E1426N10763E,,,,,BMB,004750 GP0126000000
20412J8001AA0301S9368SAC,12,APR,7203AIR INTERDICT   ALARC L,IGHT       0019502THTHAIL        WHISKEY 897,AL820               USAF,SAC,101,D    AARAREA,VSS VIET206,000142666N1075999EJBT910AIR INTERD,ICT  B-52,D003018300 U TAPAO   00180018,MMSQ                     936301,,,,,,MB 500L,093MK82 B0072000000
20412J8002AA0301S9368SAC,12,APR,7203AIR INTERDICT   ALARC L,IGHT       0019503GUGUAM         WHISKEY 921,AL902               USAF,SAC,201,D    ATSTROOP,UNK #  VSS VIET321,000116831N1065999EJBT910AIR INTERD,ICT  B-52,D003036300 ANDERSEN  01230123,MMSQ                     936301,A1168N10660E1170N10660E1170N10661E1168N10661E,,,,,BMB,004750 GP0126000000
20412J8002AA0301S9368SAC,12,APR,7203AIR INTERDICT   ALARC L,IGHT       0019503GUGUAM         WHISKEY 921,AL902               USAF,SAC,201,D    ATSTROOP,UNK #  VSS VIET321,000116831N1065999EJBT910AIR INTERD,ICT  B-52,D003036300 ANDERSEN  01230123,MMSQ                     936301,,,,,,MB 500L,093MK82 B0072000000
20412J8003AA0301S9368SAC,12,APR,7203AIR INTERDICT   ALARC L,IGHT       0019504THTHAIL        WHISKEY 929,USAF,SAC,301,AARAREA,LAS VIET101,73211000167000N1070498EJBT910AIR INTERD,ICT  B-52,D003008000 U TAPAO   02150215,MMSQ                     936301,A1916N10293E1916N10296E1917N10296E1915N10293E,,,,,BMB,004750 GP0108000000
20412J8003AA0301S9368SAC,12,APR,7203AIR INTERDICT   ALARC L,IGHT       0019504THTHAIL        WHISKEY 929,USAF,SAC,301,AARAREA,LAS VIET101,73211000167000N1070498EJBT910AIR INTERD,ICT  B-52,D003008000 U TAPAO   02150215,MMSQ                     936301,,,,,,MB 500L,093MK82 B0132000000
20412J8004AA0301S9368SAC,12,APR,7203AIR INTERDICT   ALARC L,IGHT       0019505GUGUAM         WHISKEY 946,AL955               USAF,SAC,401,D    ATSTROOP,UNK #  VSS VIET321,000116831N1066333EJBT910AIR INTERD,ICT  B-52,D003034900 ANDERSEN  03380338,MMSQ                     936301,A1168N10663E1168N10663E1166N10663E1166N10665E,,,,,BMB,004750 GP0126000000
20412J8004AA0301S9368SAC,12,APR,7203AIR INTERDICT   ALARC L,IGHT       0019505GUGUAM         WHISKEY 946,AL955               USAF,SAC,401,D    ATSTROOP,UNK #  VSS VIET321,000116831N1066333EJBT910AIR INTERD,ICT  B-52,D003034900 ANDERSEN  03380338,MMSQ                     936301,,,,,,MB 500L,093MK82 B0072000000
20412J8005AA0301S9368SAC,12,APR,7203AIR INTERDICT   ALARC L,IGHT       0019506THTHAIL        WHISKEY 923,AL981               USAF,SAC,501,D    ATSTROOP,UNK #  VSS VIET102,000163499N1074832EJBT910AIR INTERD,ICT  B-52,D003009600 U TAPAO   05320532,MMSQ                     936301,A1635N10748E1635N10746E1633N10748E1633N10750E,,,,,BMB,004750 GP0126000000
20412J8005AA0301S9368SAC,12,APR,7203AIR INTERDICT   ALARC L,IGHT       0019506THTHAIL        WHISKEY 923,AL981               USAF,SAC,501,D    ATSTROOP,UNK #  VSS VIET102,000163499N1074832EJBT910AIR INTERD,ICT  B-52,D003009600 U TAPAO   05320532,MMSQ                     936301,,,,,,MB 500L,093MK82 B0072000000
20412J8006AA0301S9368SAC,12,APR,7203AIR INTERDICT   ALARC L,IGHT       0019507THTHAIL        XRAY 140,AL904               USAF,SAC,601,D    ATSTROOP,UNK #  VSS VIET102,000163499N1074165EJBT910AIR INTERD,ICT  B-52,D003009400 U TAPAO   08000800,MMSQ                     936301,A1635N10741E1635N10741E1631N10741E1631N10741E,,,,,BMB,004750 GP0126000000
20412J8006AA0301S9368SAC,12,APR,7203AIR INTERDICT   ALARC L,IGHT       0019507THTHAIL        XRAY 140,AL904               USAF,SAC,601,D    ATSTROOP,UNK #  VSS VIET102,000163499N1074165EJBT910AIR INTERD,ICT  B-52,D003009400 U TAPAO   08000800,MMSQ                     936301,,,,,,MB 500L,093MK82 B0072000000
20412J8007AA0301S9368SAC,12,APR,7203AIR INTERDICT   ALARC L,IGHT       0019508GUGUAM         XRAY 133,AL927               USAF,SAC,701,D    ATSTROOP,UNK #  VSS VIET321,000116333N1065833EJBT910AIR INTERD,ICT  B-52,D003036000 ANDERSEN  10101010,MMSQ                     936301,A1163N10658E1161N10658E1163N10656E1161N10656E,,,,,BMB,004750 GP0122000004
20412J8007AA0301S9368SAC,12,APR,7203AIR INTERDICT   ALARC L,IGHT       0019508GUGUAM         XRAY 133,AL927               USAF,SAC,701,D    ATSTROOP,UNK #  VSS VIET321,000116333N1065833EJBT910AIR INTERD,ICT  B-52,D003036000 ANDERSEN  10101010,MMSQ                     936301,,,,,,MB 500L,093MK82 B0072000000
20412J8008AA0301S9368SAC,12,APR,7203AIR INTERDICT   ALARC L,IGHT       0019509THTHAIL        WHISKEY 951,USAF,SAC,801,AARAREA,VSS VIET206,000147666N1077666EJBT910AIR INTERD,ICT  B-52,D003009700 U TAPAO   12301230,MMSQ                     936301,A1476N10776E1475N10778E1478N10780E1478N10780E,,,,,BMB,004750 GP0126000000
20412J8008AA0301S9368SAC,12,APR,7203AIR INTERDICT   ALARC L,IGHT       0019509THTHAIL        WHISKEY 951,USAF,SAC,801,AARAREA,VSS VIET206,000147666N1077666EJBT910AIR INTERD,ICT  B-52,D003009700 U TAPAO   12301230,MMSQ                     936301,,,,,,MB 500L,093MK82 B0071000001
20412J8009AA0301S9368SAC,12,APR,7203AIR INTERDICT   ALARC L,IGHT       0019510THTHAIL        XRAY 104,AL976               USAF,SAC,901,D    ATSTROOP,UNK #  VSS VIET206,000145498N1077666EJBT910AIR INTERD,ICT  B-52,D003009300 U TAPAO   14301430,MMSQ                     936301,A1455N10776E1456N10778E1453N10778E1453N10778E,,,,,BMB,004750 GP0108000000
20412J8009AA0301S9368SAC,12,APR,7203AIR INTERDICT   ALARC L,IGHT       0019510THTHAIL        XRAY 104,AL976               USAF,SAC,901,D    ATSTROOP,UNK #  VSS VIET206,000145498N1077666EJBT910AIR INTERD,ICT  B-52,D003009300 U TAPAO   14301430,MMSQ                     936301,,,,,,MB 500L,093MK82 B0123000009
20412J8010AA0301S9368SAC,12,APR,7203AIR INTERDICT   ALARC L,IGHT       0019511GUGUAM         WHISKEY 901,USAF,SAC,1001,AARAREA,VSS VIET206,000147666N1077166EJBT910AIR INTERD,ICT  B-52,D003034300 ANDERSEN  16591659,MMSQ                     936301,A1476N10771E1478N10771E1475N10773E1476N10773E                                                                                                                                     ARCRW  TPQ/MSQ01     +30M,ARSGSTAGE AREA   ASEC/EXP03,,,,BMB,004750 GP0119000007
20412J8010AA0301S9368SAC,12,APR,7203AIR INTERDICT   ALARC L,IGHT       0019511GUGUAM         WHISKEY 901,USAF,SAC,1001,AARAREA,VSS VIET206,000147666N1077166EJBT910AIR INTERD,ICT  B-52,D003034300 ANDERSEN  16591659,MMSQ                     936301,,,,,,MB 500L,093MK82 B0072000000
20412J8011 A4301S9368SAC,12,APR,7243AIR REFUEL,THTHAIL JUSAF  YOUNG TIGER,USAF,SAC,1101,S,,000000000S0000000WJBTZP0AIR REFUEL,KC-13,5 A025111700 U TAPAO,JUSAF  JUSAF  936301,S000000S0000000W000000S0000000W,,,76,FFUELS,,
20412J8011 B4301S9368SAC,12,APR,7243AIR REFUEL,THTHAIL JUSAF  YOUNG TIGER,USAF,SAC,1101,S,,000000000S0000000WJBTZP0AIR REFUEL,KC-13,5 A019000000MTH,JUSAF  JUSAF  936300,S000000S0000000W000000S0000000W,,,,,,
20412J8011 C4301S9368SAC,12,APR,7243AIR REFUEL,THTHAIL JUSAF  YOUNG TIGER,USAF,SAC,1101,S,,000000000S0000000WJBTZP0AIR REFUEL,KC-13,5 A000000000MTH,JUSAF  JUSAF  936300,S000000S0000000W000000S0000000W,,,,,,
20412J8011 D4301S9368SAC,12,APR,7243AIR REFUEL,THTHAIL JUSAF  YOUNG TIGER,USAF,SAC,1101,S,,000000000S0000000WJBTZP0AIR REFUEL,KC-13,5 A002000000MRT,JUSAF  JUSAF  936300,S000000S0000000W000000S0000000W,,,,,,
20412J8011 E4301S9368SAC,12,APR,7243AIR REFUEL,THTHAIL JUSAF  YOUNG TIGER,USAF,SAC,1101,S,,000000000S0000000WJBTZP0AIR REFUEL,KC-13,5 A004000000MEW,JUSAF  JUSAF  936300,S000000S0000000W000000S0000000W,,,,,,
20412J8012AA0301S9378SAC,12,APR,7203AIR INTERDICT   ALARC L,IGHT       0019512GUGUAM         XRAY 159,AL903               USAF,SAC,1201,D    AARAREA,VSS VIET321,000116165N1065999EJBT910AIR INTERD,ICT  B-52,D003036500 ANDERSEN  18441844,MMSQ                     937301,A1161N10660E1161N10660E1163N10658E1163N10660E,,,,,BMB,004750 GP0126000000
20412J8012AA0301S9378SAC,12,APR,7203AIR INTERDICT   ALARC L,IGHT       0019512GUGUAM         XRAY 159,AL903               USAF,SAC,1201,D    AARAREA,VSS VIET321,000116165N1065999EJBT910AIR INTERD,ICT  B-52,D003036500 ANDERSEN  18441844,MMSQ                     937301,,,,,,MB 500L,093MK82 B0072000000
20412J8013AA0301S9378SAC,12,APR,7203AIR INTERDICT   ALARC L,IGHT       0019513THTHAIL        XRAY 128,AL979               USAF,SAC,1301,D    AARAREA,VSS VIET206,001147332N1075999EJBT910AIR INTERD,ICT  B-52,D003027100 U TAPAO   20042004,MMSQ                     937301,A1473N10760E1475N10761E1475N10763E1473N10761E,FFRDLYNO,ASACFT SYS,010000S00000W                         0ENR,T TGT                         A,BMB,004750 GP0084000042
20412J8013AA0301S9378SAC,12,APR,7203AIR INTERDICT   ALARC L,IGHT       0019513THTHAIL        XRAY 128,AL979               USAF,SAC,1301,D    AARAREA,VSS VIET206,001147332N1075999EJBT910AIR INTERD,ICT  B-52,D003027100 U TAPAO   20042004,MMSQ                     937301,,,,,,MB 500L,093MK82 B0048000024
20412J8014AA0101S9378SAC,12,APR,7201STRIKE          ALARC L,IGHT       0019514THTHAIL        XRAY 156,AL958FREEDOM DAWN   USAF,SAC,1401,D    AAFAIRFL,D       VNN VIET0,000198999N1054666EJBT910STRIKE,B-52,D003010900 U TAPAO   20102010,PBRF TGT                 937301,A1990N10546E1990N10548E1990N10546E1990N10548E,,,,,BMB,004750 GP0132000000
20412J8014AA0101S9378SAC,12,APR,7201STRIKE          ALARC L,IGHT       0019514THTHAIL        XRAY 156,AL958FREEDOM DAWN   USAF,SAC,1401,D    AAFAIRFL,D       VNN VIET0,000198999N1054666EJBT910STRIKE,B-52,D003010900 U TAPAO   20102010,PBRF TGT                 937301,,,,,,MB 500L,093MK82 B0108000000
20412J8015AA0101S9378SAC,12,APR,7201STRIKE          ALARC L,IGHT       0019515THTHAIL        XRAY 156,AL978FREEDOM DAWN   USAF,SAC,1501,D    AAFAIRFL,D       VNN VIET0,000198999N1054666EJBT910STRIKE,B-52,D003011400 U TAPAO   20122012,PBRF TGT                 937301,A1990N10546E1990N10548E1990N10546E1990N10548E,,,,,BMB,004750 GP0108000000
20412J8015AA0101S9378SAC,12,APR,7201STRIKE          ALARC L,IGHT       0019515THTHAIL        XRAY 156,AL978FREEDOM DAWN   USAF,SAC,1501,D    AAFAIRFL,D       VNN VIET0,000198999N1054666EJBT910STRIKE,B-52,D003011400 U TAPAO   20122012,PBRF TGT                 937301,,,,,,MB 500L,093MK82 B0132000000
20412J8016AA0101S9378SAC,12,APR,7201STRIKE          ALARC L,IGHT       0019516THTHAIL        XRAY 156,AL926FREEDOM DAWN   USAF,SAC,1601,D    AAFAIRFL,D       VNN VIET0,000198999N1054666EJBT910STRIKE,B-52,D003012300 U TAPAO   20162016,PBRF TGT                 937301,A1990N10546E1990N10548E1990N10546E1990N10548E,,,,,BMB,004750 GP0132000000
20412J8016AA0101S9378SAC,12,APR,7201STRIKE          ALARC L,IGHT       0019516THTHAIL        XRAY 156,AL926FREEDOM DAWN   USAF,SAC,1601,D    AAFAIRFL,D       VNN VIET0,000198999N1054666EJBT910STRIKE,B-52,D003012300 U TAPAO   20162016,PBRF TGT                 937301,,,,,,MB 500L,093MK82 B0108000000
20412J8017AA0101S9378SAC,12,APR,7201STRIKE          ALARC L,IGHT       0019517THTHAIL        XRAY 156,AL952FREEDOM DAWN   USAF,SAC,1701,D    AAFAIRFL,D       VNN VIET0,000198999N1054666EJBT910STRIKE,B-52,D003012700 U TAPAO   20202020,PBRF TGT                 937301,A1990N10546E1990N10548E1990N10546E1990N10548E,,,,,BMB,004750 GP0174000000
20412J8017AA0101S9378SAC,12,APR,7201STRIKE          ALARC L,IGHT       0019517THTHAIL        XRAY 156,AL952FREEDOM DAWN   USAF,SAC,1701,D    AAFAIRFL,D       VNN VIET0,000198999N1054666EJBT910STRIKE,B-52,D003012700 U TAPAO   20202020,PBRF TGT                 937301,,,,,,MB 500L,093MK82 B0024000000
20412J8018AA0101S9378SAC,12,APR,7201STRIKE          ALARC L,IGHT       0019518THTHAIL        XRAY 156,FREEDOM DAWN   USAF,SAC,1801,AAFAIRFL,D       VNN VIET0,000198999N1054666EJBT910STRIKE,B-52,D003013500 U TAPAO   20222022,PBRF TGT                 937301,A1990N10546E1990N10548E1990N10546E1990N10548E,,,,,BMB,004750 GP0126000000
20412J8018AA0101S9378SAC,12,APR,7201STRIKE          ALARC L,IGHT       0019518THTHAIL        XRAY 156,FREEDOM DAWN   USAF,SAC,1801,AAFAIRFL,D       VNN VIET0,000198999N1054666EJBT910STRIKE,B-52,D003013500 U TAPAO   20222022,PBRF TGT                 937301,,,,,,MB 500L,093MK82 B0072000000
20412J8019AA0101S9378SAC,12,APR,7201STRIKE          ALARC L,IGHT       0019519THTHAIL        XRAY 156,AL932FREEDOM DAWN   USAF,SAC,1901,D    AAFAIRFL,D       VNN VIET0,000198999N1054666EJBT910STRIKE,B-52,D003014200 U TAPAO   20242024,PBRF TGT                 937301,A1990N10546E1990N10548E1990N10546E1990N10548E,,,,,BMB,004750 GP0150000000
20412J8019AA0101S9378SAC,12,APR,7201STRIKE          ALARC L,IGHT       0019519THTHAIL        XRAY 156,AL932FREEDOM DAWN   USAF,SAC,1901,D    AAFAIRFL,D       VNN VIET0,000198999N1054666EJBT910STRIKE,B-52,D003014200 U TAPAO   20242024,PBRF TGT                 937301,,,,,,MB 500L,093MK82 B0048000000
20412J8020AA0301S9378SAC,12,APR,7203AIR INTERDICT   ALARC L,IGHT       0019520GUGUAM         XRAY 131,AL953               USAF,SAC,2001,D    AARAREA,VSS VIET103,000155999N1082000EJBT910AIR INTERD,ICT  B-52,D003034800 ANDERSEN  21052105,MMSQ                     937301,A1560N10820E1558N10820E1556N10821E1556N10821E,,,,,BMB,004750 GP0126000000
20412J8020AA0301S9378SAC,12,APR,7203AIR INTERDICT   ALARC L,IGHT       0019520GUGUAM         XRAY 131,AL953               USAF,SAC,2001,D    AARAREA,VSS VIET103,000155999N1082000EJBT910AIR INTERD,ICT  B-52,D003034800 ANDERSEN  21052105,MMSQ                     937301,,,,,,MB 500L,093MK82 B0072000000
20412J8021AA0301S9378SAC,12,APR,7203AIR INTERDICT   ALARC L,IGHT       0019521THTHAIL        WHISKEY 984,USAF,SAC,2101,ATSTROOP,UNK #  LAS VIET101,73211000167998N1069832EJBT910AIR INTERD,ICT  B-52,D003011100 U TAPAO   22342234,MMSQ                     937301,A1919N10296E1920N10296E1919N10297E1920N10297E,,,,,BMB,004750 GP0126000000
20412J8021AA0301S9378SAC,12,APR,7203AIR INTERDICT   ALARC L,IGHT       0019521THTHAIL        WHISKEY 984,USAF,SAC,2101,ATSTROOP,UNK #  LAS VIET101,73211000167998N1069832EJBT910AIR INTERD,ICT  B-52,D003011100 U TAPAO   22342234,MMSQ                     937301,,,,,,MB 500L,093MK82 B0071000001
20412J8022AA0301S9378SAC,12,APR,7203AIR INTERDICT   ALARC L,IGHT       0019522THTHAIL        XRAY 154,USAF,SAC,2201,AARAREA,VSS VIET206,000147998N1077998EJBT910AIR INTERD,ICT  B-52,D003008400 U TAPAO   23492349,MMSQ                     937301,A1480N10780E1476N10781E1476N10780E1480N10781E                                                                                                                                     ARCRW  TPQ/MSQ01     +30M,ARSTSTORAGE AREA ASEC/EXP02,,,,BMB,004750 GP0126000000
20412J8022AA0301S9378SAC,12,APR,7203AIR INTERDICT   ALARC L,IGHT       0019522THTHAIL        XRAY 154,USAF,SAC,2201,AARAREA,VSS VIET206,000147998N1077998EJBT910AIR INTERD,ICT  B-52,D003008400 U TAPAO   23492349,MMSQ                     937301,,,,,,MB 500L,093MK82 B0072000000
20413J8001AA0301S9378SAC,13,APR,7203AIR INTERDICT   ALARC L,IGHT       0019523GUGUAM         XRAY 145,AL907               USAF,SAC,101,D    AARAREA,VSS VIET206,000146831N1077832EJBT910AIR INTERD,ICT  B-52,D003035500 ANDERSEN  01060106,MMSQ                     937301,A1468N10778E1468N10778E1468N10781E1470N10780E,,,,,BMB,004750 GP0106000020
20413J8001AA0301S9378SAC,13,APR,7203AIR INTERDICT   ALARC L,IGHT       0019523GUGUAM         XRAY 145,AL907               USAF,SAC,101,D    AARAREA,VSS VIET206,000146831N1077832EJBT910AIR INTERD,ICT  B-52,D003035500 ANDERSEN  01060106,MMSQ                     937301,,,,,,MB 500L,093MK82 B0072000000
20413J8002AA0301S9388SAC,13,APR,7203AIR INTERDICT   ALARC L,IGHT       0019524THTHAIL        XRAY 166,USAF,SAC,201,CAARAREA,VSS VIET206,000146831N1077832EJBT910AIR INTERD,ICT  B-52,D003009500 U TAPAO   02150215,MMSQ                     938601,A1468N10778E1468N10778E1470N10780E1470N10780E                                                                                                                                     ARCRW  10-20A 01     +30M,ARSTSTORAGE AREA ASEC/EXP03,,,,BMB,004750 GP0126000000
20413J8002AA0301S9388SAC,13,APR,7203AIR INTERDICT   ALARC L,IGHT       0019524THTHAIL        XRAY 166,USAF,SAC,201,CAARAREA,VSS VIET206,000146831N1077832EJBT910AIR INTERD,ICT  B-52,D003009500 U TAPAO   02150215,MMSQ                     938601,,,,,,MB 500L,093MK82 B0072000000
20413J8003AA0301S9378SAC,13,APR,7203AIR INTERDICT   ALARC L,IGHT       0019525GUGUAM         XRAY 197,AL913               USAF,SAC,301,D    AARAREA,VSS VIET321,000116665N1065667EJBT910AIR INTERD,ICT  B-52,D002023700 ANDERSEN  03310331,MMSQ                     937301,A1166N10656E1166N10658E1168N10660E1168N10660E,,,,,BMB,004750 GP0084000000
20413J8003AA0301S9378SAC,13,APR,7203AIR INTERDICT   ALARC L,IGHT       0019525GUGUAM         XRAY 197,AL913               USAF,SAC,301,D    AARAREA,VSS VIET321,000116665N1065667EJBT910AIR INTERD,ICT  B-52,D002023700 ANDERSEN  03310331,MMSQ                     937301,,,,,,MB 500L,093MK82 B0048000000
20413J8004AA0301S9378SAC,13,APR,7203AIR INTERDICT   ALARC L,IGHT       0019526THTHAIL        XRAY 123,AL908               USAF,SAC,401,D    AARAREA,VSS VIET321,000116665N1065667EJBT910AIR INTERD,ICT  B-52,D003009100 U TAPAO   04390439,MMSQ                     937301,A1166N10656E1166N10658E1163N10658E1163N10658E,,,,,BMB,004750 GP0108000000
20413J8004AA0301S9378SAC,13,APR,7203AIR INTERDICT   ALARC L,IGHT       0019526THTHAIL        XRAY 123,AL908               USAF,SAC,401,D    AARAREA,VSS VIET321,000116665N1065667EJBT910AIR INTERD,ICT  B-52,D003009100 U TAPAO   04390439,MMSQ                     937301,,,,,,MB 500L,093MK82 B0132000000
20413J8005AA0301S9378SAC,13,APR,7203AIR INTERDICT   ALARC L,IGHT       0019527THTHAIL        WHISKEY 948,AL987               USAF,SAC,501,D    ATSTROOP,UNK #  VSS VIET206,000145000N1077000EJBT910AIR INTERD,ICT  B-52,D003010300 U TAPAO   06410641,MMSQ                     937301,A1450N10770E1450N10770E1453N10768E1453N10770E                                                                                                                                     ARCRW  TPQ/MSQ01     +30M,TS  TROOP UNK #  ASEC/EXP01,,,,BMB,004750 GP0132000000
20413J8005AA0301S9378SAC,13,APR,7203AIR INTERDICT   ALARC L,IGHT       0019527THTHAIL        WHISKEY 948,AL987               USAF,SAC,501,D    ATSTROOP,UNK #  VSS VIET206,000145000N1077000EJBT910AIR INTERD,ICT  B-52,D003010300 U TAPAO   06410641,MMSQ                     937301,,,,,,MB 500L,093MK82 B0107000001
20413J8006AA0301S9378SAC,13,APR,7203AIR INTERDICT   ALARC L,IGHT       0019528GUGUAM         XRAY 190,AL914               USAF,SAC,601,D    AARAREA,VSS VIET321,000116831N1066333EJBT910AIR INTERD,ICT  B-52,D003035100 ANDERSEN  07060706,MMSQ                     937301,A1168N10663E1168N10665E1166N10663E1166N10663E,,,,,BMB,004750 GP0126000000
20413J8006AA0301S9378SAC,13,APR,7203AIR INTERDICT   ALARC L,IGHT       0019528GUGUAM         XRAY 190,AL914               USAF,SAC,601,D    AARAREA,VSS VIET321,000116831N1066333EJBT910AIR INTERD,ICT  B-52,D003035100 ANDERSEN  07060706,MMSQ                     937301,,,,,,MB 500L,093MK82 B0072000000
20413J8007AA0301S9378SAC,13,APR,7203AIR INTERDICT   ALARC L,IGHT       0019529GUGUAM         XRAY 116,AL985               USAF,SAC,701,D    AARAREA,VSS VIET321,000116499N1065999EJBT910AIR INTERD,ICT  B-52,D003035200 ANDERSEN  10471047,MMSQ                     937301,A1165N10660E1166N10661E1166N10660E1166N10660E,,,,,BMB,004750 GP0126000000
20413J8007AA0301S9378SAC,13,APR,7203AIR INTERDICT   ALARC L,IGHT       0019529GUGUAM         XRAY 116,AL985               USAF,SAC,701,D    AARAREA,VSS VIET321,000116499N1065999EJBT910AIR INTERD,ICT  B-52,D003035200 ANDERSEN  10471047,MMSQ                     937301,,,,,,MB 500L,093MK82 B0071000001
20413J8008AA0301S9378SAC,13,APR,7203AIR INTERDICT   ALARC L,IGHT       0019530THTHAIL        WHISKEY 950,AL968               USAF,SAC,801,D    ATSTROOP,UNK #  VSS VIET206,000145166N1077166EJBT910AIR INTERD,ICT  B-52,D003013200 U TAPAO   14261426,MMSQ                     937301,A1451N10771E1451N10770E1453N10768E1455N10770E,,,,,BMB,004750 GP0108000000
20413J8008AA0301S9378SAC,13,APR,7203AIR INTERDICT   ALARC L,IGHT       0019530THTHAIL        WHISKEY 950,AL968               USAF,SAC,801,D    ATSTROOP,UNK #  VSS VIET206,000145166N1077166EJBT910AIR INTERD,ICT  B-52,D003013200 U TAPAO   14261426,MMSQ                     937301,,,,,,MB 500L,093MK82 B0095000037
20413J8009AA0301S9378SAC,13,APR,7203AIR INTERDICT   ALARC L,IGHT       0019531GUGUAM         XRAY 155,AL916               USAF,SAC,901,D    AARAREA,VSS VIET321,000116665N1066333EJBT910AIR INTERD,ICT  B-52,D003036700 ANDERSEN  14311431,MMSQ                     937301,A1166N10663E1168N10661E1168N10661E1168N10663E,,,,,BMB,004750 GP0126000000
20413J8009AA0301S9378SAC,13,APR,7203AIR INTERDICT   ALARC L,IGHT       0019531GUGUAM         XRAY 155,AL916               USAF,SAC,901,D    AARAREA,VSS VIET321,000116665N1066333EJBT910AIR INTERD,ICT  B-52,D003036700 ANDERSEN  14311431,MMSQ                     937301,,,,,,MB 500L,093MK82 B0072000000
20413J8010AA0301S9378SAC,13,APR,7203AIR INTERDICT   ALARC L,IGHT       0019532THTHAIL        XRAY 196,AL988               USAF,SAC,1001,D    AARAREA,VSS VIET321,000116665N1065999EJBT910AIR INTERD,ICT  B-52,D003009000 U TAPAO   15251525,MMSQ                     937301,A1166N10660E1168N10660E1166N10661E1166N10661E,,,,,BMB,004750 GP0108000000
20413J8010AA0301S9378SAC,13,APR,7203AIR INTERDICT   ALARC L,IGHT       0019532THTHAIL        XRAY 196,AL988               USAF,SAC,1001,D    AARAREA,VSS VIET321,000116665N1065999EJBT910AIR INTERD,ICT  B-52,D003009000 U TAPAO   15251525,MMSQ                     937301,,,,,,MB 500L,093MK82 B0132000000
20413J8011AA0301S9378SAC,13,APR,7203AIR INTERDICT   ALARC L,IGHT       0019533THTHAIL        XRAY 165,AL918               USAF,SAC,1101,D    AARAREA,VSS VIET102,000163167N1075000EJBT910AIR INTERD,ICT  B-52,D003009800 U TAPAO   16411641,MMSQ                     937301,A1631N10750E1633N10750E1633N10746E1631N10746E                                                                                                                                     ARCRW  TPQ/MSQ01     +30M,ARSTSTORAGE AREA ASEC/EXP02,,,,BMB,004750 GP0126000000
20413J8011AA0301S9378SAC,13,APR,7203AIR INTERDICT   ALARC L,IGHT       0019533THTHAIL        XRAY 165,AL918               USAF,SAC,1101,D    AARAREA,VSS VIET102,000163167N1075000EJBT910AIR INTERD,ICT  B-52,D003009800 U TAPAO   16411641,MMSQ                     937301,,,,,,MB 500L,093MK82 B0072000000
20413J8012AA0301S9378SAC,13,APR,7203AIR INTERDICT   ALARC L,IGHT       0019534GUGUAM         XRAY 192,AL992               USAF,SAC,1201,D    AARAREA,VSS VIET206,000145332N1077832EJBT910AIR INTERD,ICT  B-52,D003034700 ANDERSEN  17491749,MMSQ                     937301,A1453N10778E1453N10781E1455N10781E1455N10778E                                                                                                                                     ARCRW  TPQ/MSQ01     +30M,ARSTSTORAGE AREA ASEC/EXP06,,,,BMB,004750 GP0125000001
20413J8012AA0301S9378SAC,13,APR,7203AIR INTERDICT   ALARC L,IGHT       0019534GUGUAM         XRAY 192,AL992               USAF,SAC,1201,D    AARAREA,VSS VIET206,000145332N1077832EJBT910AIR INTERD,ICT  B-52,D003034700 ANDERSEN  17491749,MMSQ                     937301,,,,,,MB 500L,093MK82 B0072000000
20413J8013AA0301S9378SAC,13,APR,7203AIR INTERDICT   ALARC L,IGHT       0019535THTHAIL        XRAY 147,AL949               USAF,SAC,1301,D    AARAREA,VSS VIET206,000147166N1075833EJBT910AIR INTERD,ICT  B-52,D003010100 U TAPAO   19291929,MMSQ                     937301,A1471N10758E1470N10760E1473N10760E1473N10761E                                                                                                                                     ARCRW  TPQ/MSQ01     +30M,ARSGSTAGE AREA   ASEC/EXP01,,,,BMB,004750 GP0084000000
20413J8013AA0301S9378SAC,13,APR,7203AIR INTERDICT   ALARC L,IGHT       0019535THTHAIL        XRAY 147,AL949               USAF,SAC,1301,D    AARAREA,VSS VIET206,000147166N1075833EJBT910AIR INTERD,ICT  B-52,D003010100 U TAPAO   19291929,MMSQ                     937301,,,,,,MB 500L,093MK82 B0048000000
20413J8013AA0301S9378SAC,13,APR,7203AIR INTERDICT   ALARC L,IGHT       0019535THTHAIL        XRAY 147,AL949               USAF,SAC,1301,D    AARAREA,VSS VIET206,000147166N1075833EJBT910AIR INTERD,ICT  B-52,D003010100 U TAPAO   19291929,MMSQ                     937301,,,,,,,183CBU-490066000000
20413J8014 A4301S9378SAC,13,APR,7243AIR REFUEL,THTHAIL JUSAF  YOUNG TIGER,USAF,SAC,1401,S,,000000000S0000000WJBTZP0AIR REFUEL,KC-13,5 A037202100 U TAPAO,JUSAF  JUSAF  937301,S000000S0000000W000000S0000000W,,,76,FFUELS,,
20413J8014 B4301S9378SAC,13,APR,7243AIR REFUEL,THTHAIL JUSAF  YOUNG TIGER,USAF,SAC,1401,S,,000000000S0000000WJBTZP0AIR REFUEL,KC-13,5 A031000000MTH,JUSAF  JUSAF  937300,S000000S0000000W000000S0000000W,,,,,,
20413J8014 C4301S9378SAC,13,APR,7243AIR REFUEL,THTHAIL JUSAF  YOUNG TIGER,USAF,SAC,1401,S,,000000000S0000000WJBTZP0AIR REFUEL,KC-13,5 A000000000MTH,JUSAF  JUSAF  937300,S000000S0000000W000000S0000000W,,,,,,
20413J8014 D4301S9378SAC,13,APR,7243AIR REFUEL,THTHAIL JUSAF  YOUNG TIGER,USAF,SAC,1401,S,,000000000S0000000WJBTZP0AIR REFUEL,KC-13,5 A004000000MRT,JUSAF  JUSAF  937300,S000000S0000000W000000S0000000W,,,,,,
20413J8014 E4301S9378SAC,13,APR,7243AIR REFUEL,THTHAIL JUSAF  YOUNG TIGER,USAF,SAC,1401,S,,000000000S0000000WJBTZP0AIR REFUEL,KC-13,5 A002000000MEW,JUSAF  JUSAF  937300,S000000S0000000W000000S0000000W,,,,,,
20413J8015AA0301S9388SAC,13,APR,7203AIR INTERDICT   ALARC L,IGHT       0019536THTHAIL        WHISKEY 924,USAF,SAC,1501,ATSTROOP,UNK #  LAS VIET101,000168499N1070166EJBT910AIR INTERD,ICT  B-52,D003008800 U TAPAO   20152015,MMSQ                     938301,A1922N10306E1920N10308E1922N10307E1919N10307E,,,,,BMB,004750 GP0089000001
20413J8015AA0301S9388SAC,13,APR,7203AIR INTERDICT   ALARC L,IGHT       0019536THTHAIL        WHISKEY 924,USAF,SAC,1501,ATSTROOP,UNK #  LAS VIET101,000168499N1070166EJBT910AIR INTERD,ICT  B-52,D003008800 U TAPAO   20152015,MMSQ                     938301,,,,,,MB 500L,093MK82 B0192000000
20413J8016AA0301S9388SAC,13,APR,7203AIR INTERDICT   ALARC L,IGHT       0019537GUGUAM         XRAY 146,AL974               USAF,SAC,1601,D    AARAREA,VSS VIET321,000116665N1065999EJBT910AIR INTERD,ICT  B-52,D002023400 ANDERSEN  21242124,MMSQ                     938301,A1166N10660E1168N10658E1168N10660E1168N10661E,,,,,BMB,004750 GP0084000000
20413J8016AA0301S9388SAC,13,APR,7203AIR INTERDICT   ALARC L,IGHT       0019537GUGUAM         XRAY 146,AL974               USAF,SAC,1601,D    AARAREA,VSS VIET321,000116665N1065999EJBT910AIR INTERD,ICT  B-52,D002023400 ANDERSEN  21242124,MMSQ                     938301,,,,,,MB 500L,093MK82 B0048000000
20413J8017AA0301S9388SAC,13,APR,7203AIR INTERDICT   ALARC L,IGHT       0019538THTHAIL        XRAY 193,AL998               USAF,SAC,1701,D    AARAREA,VSS VIET206,000116665N1065999EJBT910AIR INTERD,ICT  B-52,D003010300 U TAPAO   22342234,MMSQ                     938301,A1166N10660E1165N10660E1168N10660E1166N10661E,,,,,BMB,004750 GP0126000000
20413J8017AA0301S9388SAC,13,APR,7203AIR INTERDICT   ALARC L,IGHT       0019538THTHAIL        XRAY 193,AL998               USAF,SAC,1701,D    AARAREA,VSS VIET206,000116665N1065999EJBT910AIR INTERD,ICT  B-52,D003010300 U TAPAO   22342234,MMSQ                     938301,,,,,,MB 500L,093MK82 B0072000000
20414J8001AA0301S9388SAC,14,APR,7203AIR INTERDICT   ALARC L,IGHT       0019539THTHAIL        WHISKEY 894,AL994               USAF,SAC,101,D    ATSTROOP,UNK #  VSS VIET206,000145000N1076831EJBT910AIR INTERD,ICT  B-52,D003011300 U TAPAO   00110011,MMSQ                     938301,A1450N10768E1448N10766E1446N10768E1448N10770E,,,,,BMB,004750 GP0126000000
20414J8001AA0301S9388SAC,14,APR,7203AIR INTERDICT   ALARC L,IGHT       0019539THTHAIL        WHISKEY 894,AL994               USAF,SAC,101,D    ATSTROOP,UNK #  VSS VIET206,000145000N1076831EJBT910AIR INTERD,ICT  B-52,D003011300 U TAPAO   00110011,MMSQ                     938301,,,,,,MB 500L,093MK82 B0072000000
20414J8002AA0301S9398SAC,14,APR,7203AIR INTERDICT   ALARC L,IGHT       0019540GUGUAM         XRAY 195,AL101               USAF,SAC,201,D    AARAREA,VSS VIET321,000116665N1066665EJBT910AIR INTERD,ICT  B-52,D002023800 ANDERSEN  00250025,MMSQ                     939301,A1166N10666E1166N10668E1165N10668E1165N10666E,,,,,BMB,004750 GP0084000000
20414J8002AA0301S9398SAC,14,APR,7203AIR INTERDICT   ALARC L,IGHT       0019540GUGUAM         XRAY 195,AL101               USAF,SAC,201,D    AARAREA,VSS VIET321,000116665N1066665EJBT910AIR INTERD,ICT  B-52,D002023800 ANDERSEN  00250025,MMSQ                     939301,,,,,,MB 500L,093MK82 B0048000000
20414J8003AA0301S9388SAC,14,APR,7203AIR INTERDICT   ALARC L,IGHT       0019541THTHAIL        XRAY 114,AL126               USAF,SAC,301,D    AARAREA,VSS VIET321,000116499N1066665EJBT910AIR INTERD,ICT  B-52,D003009100 U TAPAO   01290129,MMSQ                     938301,A1165N10666E1165N10666E1163N10666E1163N10665E,,,,,BMB,004750 GP0126000000
20414J8003AA0301S9388SAC,14,APR,7203AIR INTERDICT   ALARC L,IGHT       0019541THTHAIL        XRAY 114,AL126               USAF,SAC,301,D    AARAREA,VSS VIET321,000116499N1066665EJBT910AIR INTERD,ICT  B-52,D003009100 U TAPAO   01290129,MMSQ                     938301,,,,,,MB 500L,093MK82 B0072000000
20414J8004AA0301S9478SAC,14,APR,7203AIR INTERDICT   ALARC L,IGHT       0019542GUGUAM         XRAY 164,AL176               USAF,SAC,401,D    AARAREA,VSS VIET321,001116665N1066831EJBT910AIR INTERD,ICT  B-52,D003027800 ANDERSEN  02400240,MMSQ                     947301,A1166N10668E1166N10670E1165N10670E1165N10668E,FFRDLYNO,ASACFT SYS,010000S00000W                         0ENR,T TGT                         A,BMB,004750 GP0084042000
20414J8004AA0301S9478SAC,14,APR,7203AIR INTERDICT   ALARC L,IGHT       0019542GUGUAM         XRAY 164,AL176               USAF,SAC,401,D    AARAREA,VSS VIET321,001116665N1066831EJBT910AIR INTERD,ICT  B-52,D003027800 ANDERSEN  02400240,MMSQ                     947301,,,,,,MB 500L,093MK82 B0048024000
20414J8005AA0301S9388SAC,14,APR,7203AIR INTERDICT   ALARC L,IGHT       0019543THTHAIL        XRAY 122,AL112               USAF,SAC,501,D    AARAREA,VSS VIET321,000116831N1066831EJBT910AIR INTERD,ICT  B-52,D003009600 U TAPAO   03510351,MMSQ                     938301,A1168N10668E1168N10668E1168N10670E1170N10668E,,,,,BMB,004750 GP0126000000
20414J8005AA0301S9388SAC,14,APR,7203AIR INTERDICT   ALARC L,IGHT       0019543THTHAIL        XRAY 122,AL112               USAF,SAC,501,D    AARAREA,VSS VIET321,000116831N1066831EJBT910AIR INTERD,ICT  B-52,D003009600 U TAPAO   03510351,MMSQ                     938301,,,,,,MB 500L,093MK82 B0072000000
20414J8006AA0301S9388SAC,14,APR,7203AIR INTERDICT   ALARC L,IGHT       0019544THTHAIL        XRAY 120,AL137               USAF,SAC,601,D    AARAREA,VSS VIET101,000166831N1070833EJBT910AIR INTERD,ICT  B-52,D003009700 U TAPAO   05000500,MMSQ                     938301,A1668N10708E1670N10708E1668N10711E1670N10711E,,,,,BMB,004750 GP0107000001
20414J8006AA0301S9388SAC,14,APR,7203AIR INTERDICT   ALARC L,IGHT       0019544THTHAIL        XRAY 120,AL137               USAF,SAC,601,D    AARAREA,VSS VIET101,000166831N1070833EJBT910AIR INTERD,ICT  B-52,D003009700 U TAPAO   05000500,MMSQ                     938301,,,,,,MB 500L,093MK82 B0132000000
20414J8007AA0301S9388SAC,14,APR,7203AIR INTERDICT   ALARC L,IGHT       0019545GUGUAM         XRAY 142,AL162               USAF,SAC,701,D    AARAREA,VSS VIET206,000147332N1078167EJBT910AIR INTERD,ICT  B-52,D003037600 ANDERSEN  06420642,MMSQ                     938301,A1473N10781E1471N10778E1473N10781E1471N10780E,,,,,BMB,004750 GP0126000000
20414J8007AA0301S9388SAC,14,APR,7203AIR INTERDICT   ALARC L,IGHT       0019545GUGUAM         XRAY 142,AL162               USAF,SAC,701,D    AARAREA,VSS VIET206,000147332N1078167EJBT910AIR INTERD,ICT  B-52,D003037600 ANDERSEN  06420642,MMSQ                     938301,,,,,,MB 500L,093MK82 B0071000001
20414J8008AA0301S9478SAC,14,APR,7203AIR INTERDICT   ALARC L,IGHT       0019546THTHAIL        WHISKEY 936,AL187               USAF,SAC,801,D    AARAREA,VSS VIET206,001146499N1079832EJBT910AIR INTERD,ICT  B-52,D003010100 U TAPAO   07480748,MMSQ                     947301,A1465N10798E1466N10796E1465N10798E1466N10798E,FFRDLYNO,ASACFT SYS,010000S00000W                         0ENR,T TGT                         A,BMB,004750 GP0084000042
20414J8008AA0301S9478SAC,14,APR,7203AIR INTERDICT   ALARC L,IGHT       0019546THTHAIL        WHISKEY 936,AL187               USAF,SAC,801,D    AARAREA,VSS VIET206,001146499N1079832EJBT910AIR INTERD,ICT  B-52,D003010100 U TAPAO   07480748,MMSQ                     947301,,,,,,MB 500L,093MK82 B0048000024
20414J8009AA0301S9388SAC,14,APR,7203AIR INTERDICT   ALARC L,IGHT       0019547THTHAIL        WHISKEY 933,AL119               USAF,SAC,901,D    AARAREA,VSS VIET206,000146665N1080000EJBT910AIR INTERD,ICT  B-52,D003011000 U TAPAO   08580858,MMSQ                     938301,A1466N10800E1466N10796E1466N10796E1466N10800E,,,,,BMB,004750 GP0108000000
20414J8009AA0301S9388SAC,14,APR,7203AIR INTERDICT   ALARC L,IGHT       0019547THTHAIL        WHISKEY 933,AL119               USAF,SAC,901,D    AARAREA,VSS VIET206,000146665N1080000EJBT910AIR INTERD,ICT  B-52,D003011000 U TAPAO   08580858,MMSQ                     938301,,,,,,MB 500L,093MK82 B0132000000
20414J8010AA0301S9388SAC,14,APR,7203AIR INTERDICT   ALARC L,IGHT       0019548GUGUAM         XRAY 258,AL144               USAF,SAC,1001,D    AARAREA,VSS VIET102,000163167N1074666EJBT910AIR INTERD,ICT  B-52,D003035500 ANDERSEN  09410941,MMSQ                     938301,A1631N10746E1633N10746E1633N10745E1633N10743E,,,,,BMB,004750 GP0126000000
20414J8010AA0301S9388SAC,14,APR,7203AIR INTERDICT   ALARC L,IGHT       0019548GUGUAM         XRAY 258,AL144               USAF,SAC,1001,D    AARAREA,VSS VIET102,000163167N1074666EJBT910AIR INTERD,ICT  B-52,D003035500 ANDERSEN  09410941,MMSQ                     938301,,,,,,MB 500L,093MK82 B0071000001
20414J8011AA0301S9388SAC,14,APR,7203AIR INTERDICT   ALARC L,IGHT       0019549THTHAIL        XRAY 233,AL169               USAF,SAC,1101,D    AARAREA,VSS VIET206,000147332N1076499EJBT910AIR INTERD,ICT  B-52,D003009800 U TAPAO   10511051,MMSQ                     938301,A1473N10765E1475N10765E1475N10766E1473N10766E,,,,,BMB,004750 GP0126000000
20414J8011AA0301S9388SAC,14,APR,7203AIR INTERDICT   ALARC L,IGHT       0019549THTHAIL        XRAY 233,AL169               USAF,SAC,1101,D    AARAREA,VSS VIET206,000147332N1076499EJBT910AIR INTERD,ICT  B-52,D003009800 U TAPAO   10511051,MMSQ                     938301,,,,,,MB 500L,093MK82 B0072000000
20414J8012AA0301S9388SAC,14,APR,7203AIR INTERDICT   ALARC L,IGHT       0019550GUGUAM         XRAY 167,AL194               USAF,SAC,1201,D    AARAREA,VSS VIET206,000147500N1077998EJBT910AIR INTERD,ICT  B-52,D003023500 ANDERSEN  12171217,MMSQ                     938301,A1475N10780E1473N10778E1475N10778E1473N10776E,,,,,BMB,004750 GP0125000001
20414J8012AA0301S9388SAC,14,APR,7203AIR INTERDICT   ALARC L,IGHT       0019550GUGUAM         XRAY 167,AL194               USAF,SAC,1201,D    AARAREA,VSS VIET206,000147500N1077998EJBT910AIR INTERD,ICT  B-52,D003023500 ANDERSEN  12171217,MMSQ                     938301,,,,,,MB 500L,093MK82 B0072000000
20414J8013AA0301S9388SAC,14,APR,7203AIR INTERDICT   ALARC L,IGHT       0019551THTHAIL        XRAY 256,AL124               USAF,SAC,1301,D    AARAREA,VSS VIET101,000167166N1070667EJBT910AIR INTERD,ICT  B-52,D003010500 U TAPAO   13031303,MMSQ                     938301,A1671N10706E1670N10705E1673N10703E1673N10705E,,,,,BMB,004750 GP0126000000
20414J8013AA0301S9388SAC,14,APR,7203AIR INTERDICT   ALARC L,IGHT       0019551THTHAIL        XRAY 256,AL124               USAF,SAC,1301,D    AARAREA,VSS VIET101,000167166N1070667EJBT910AIR INTERD,ICT  B-52,D003010500 U TAPAO   13031303,MMSQ                     938301,,,,,,MB 500L,093MK82 B0072000000
20414J8014AA0301S9388SAC,14,APR,7203AIR INTERDICT   ALARC L,IGHT       0019552GUGUAM         XRAY 235,AL149               USAF,SAC,1401,D    AARAREA,VSS VIET101,000167500N1068833EJBT910AIR INTERD,ICT  B-52,D003035500 ANDERSEN  14031403,MMSQ                     938301,A1675N10688E1675N10688E1671N10690E1671N10688E                                                                                                                                     ARCRW  TPQ/MSQ01     +30M,ARSTSTORAGE AREA ASEC/EXP26,,,,BMB,004750 GP0125000001
20414J8014AA0301S9388SAC,14,APR,7203AIR INTERDICT   ALARC L,IGHT       0019552GUGUAM         XRAY 235,AL149               USAF,SAC,1401,D    AARAREA,VSS VIET101,000167500N1068833EJBT910AIR INTERD,ICT  B-52,D003035500 ANDERSEN  14031403,MMSQ                     938301,,,,,,MB 500L,093MK82 B0072000000
20414J8015AA0301S9388SAC,14,APR,7203AIR INTERDICT   ALARC L,IGHT       0019553THTHAIL        XRAY 265,AL174               USAF,SAC,1501,D    AARAREA,VSS VIET206,000145667N1077666EJBT910AIR INTERD,ICT  B-52,D002007300 U TAPAO   15091509,MMSQ                     938301,A1456N10776E1456N10776E1455N10778E1455N10778E,,,,,BMB,004750 GP0084000000
20414J8015AA0301S9388SAC,14,APR,7203AIR INTERDICT   ALARC L,IGHT       0019553THTHAIL        XRAY 265,AL174               USAF,SAC,1501,D    AARAREA,VSS VIET206,000145667N1077666EJBT910AIR INTERD,ICT  B-52,D002007300 U TAPAO   15091509,MMSQ                     938301,,,,,,MB 500L,093MK82 B0048000000
20414J8015BB0301S9388SAC,14,APR,7203AIR INTERDICT   ALARC L,IGHT       0019553THTHAIL        XRAY 265,AL174               USAF,SAC,1501,D    AARAREA,VSS VIET206,000147332N1078167EJBT910AIR INTERD,ICT  B-52,D001003600 U TAPAO   15371537,MMSQ                     938300,A1473N10781E1475N10780E1475N10780E1473N10780E,,,,,BMB,004750 GP0042000000
20414J8015BB0301S9388SAC,14,APR,7203AIR INTERDICT   ALARC L,IGHT       0019553THTHAIL        XRAY 265,AL174               USAF,SAC,1501,D    AARAREA,VSS VIET206,000147332N1078167EJBT910AIR INTERD,ICT  B-52,D001003600 U TAPAO   15371537,MMSQ                     938300,,,,,,MB 500L,093MK82 B0024000000
20414J8016AA0301S9388SAC,14,APR,7203AIR INTERDICT   ALARC L,IGHT       0019554THTHAIL        XRAY 252,AL199               USAF,SAC,1601,D    AARAREA,VSS VIET206,000145332N1077832EJBT910AIR INTERD,ICT  B-52,D003009400 U TAPAO   16151615,MMSQ                     938301,A1453N10778E1453N10781E1455N10781E1455N10778E                                                                                                                                     ARCRW  TPQ/MSQ01     +30M,ARSTSTORAGE AREA ASEC/EXP07,,,,BMB,004750 GP0108000000
20414J8016AA0301S9388SAC,14,APR,7203AIR INTERDICT   ALARC L,IGHT       0019554THTHAIL        XRAY 252,AL199               USAF,SAC,1601,D    AARAREA,VSS VIET206,000145332N1077832EJBT910AIR INTERD,ICT  B-52,D003009400 U TAPAO   16151615,MMSQ                     938301,,,,,,MB 500L,093MK82 B0132000000
20414J8017AA0301S9388SAC,14,APR,7203AIR INTERDICT   ALARC L,IGHT       0019555GUGUAM         XRAY 259,AL109               USAF,SAC,1701,D    AARAREA,VSS VIET321,000116333N1065833EJBT910AIR INTERD,ICT  B-52,D003036100 ANDERSEN  17231723,MMSQ                     938301,A1163N10658E1163N10660E1166N10658E1166N10660E,,,,,BMB,004750 GP0126000000
20414J8017AA0301S9388SAC,14,APR,7203AIR INTERDICT   ALARC L,IGHT       0019555GUGUAM         XRAY 259,AL109               USAF,SAC,1701,D    AARAREA,VSS VIET321,000116333N1065833EJBT910AIR INTERD,ICT  B-52,D003036100 ANDERSEN  17231723,MMSQ                     938301,,,,,,MB 500L,093MK82 B0072000000
20414J8018AA0101S9388SAC,14,APR,7201STRIKE          ALARC L,IGHT       0019556THTHAIL        XRAY 262,AL134               USAF,SAC,1801,D    AARAREA,CBCAMB  0,000146333N1075166EJBT910STRIKE,B-52,D003009600 U TAPAO   18221822,MMSQ                     938301,A1463N10751E1461N10750E1463N10748E1465N10751E,,,,,BMB,004750 GP0084000000
20414J8018AA0101S9388SAC,14,APR,7201STRIKE          ALARC L,IGHT       0019556THTHAIL        XRAY 262,AL134               USAF,SAC,1801,D    AARAREA,CBCAMB  0,000146333N1075166EJBT910STRIKE,B-52,D003009600 U TAPAO   18221822,MMSQ                     938301,,,,,,MB 500L,093MK82 B0047000001
20414J8018AA0101S9388SAC,14,APR,7201STRIKE          ALARC L,IGHT       0019556THTHAIL        XRAY 262,AL134               USAF,SAC,1801,D    AARAREA,CBCAMB  0,000146333N1075166EJBT910STRIKE,B-52,D003009600 U TAPAO   18221822,MMSQ                     938301,,,,,,SNKYE,110CBU24 0024000000
20414J8018AA0101S9388SAC,14,APR,7201STRIKE          ALARC L,IGHT       0019556THTHAIL        XRAY 262,AL134               USAF,SAC,1801,D    AARAREA,CBCAMB  0,000146333N1075166EJBT910STRIKE,B-52,D003009600 U TAPAO   18221822,MMSQ                     938301,,,,,,,183CBU-490049000000
20414J8019AA0301S9388SAC,14,APR,7203AIR INTERDICT   ALARC L,IGHT       0019557THTHAIL        XRAY 278,AL184               USAF,SAC,1901,D    AARAREA,VSS VIET321,000116499N1065833EJBT910AIR INTERD,ICT  B-52,D003009100 U TAPAO   19301930,MMSQ                     938301,A1165N10658E1165N10660E1163N10660E1163N10658E,,,,,BMB,004750 GP0108000000
20414J8019AA0301S9388SAC,14,APR,7203AIR INTERDICT   ALARC L,IGHT       0019557THTHAIL        XRAY 278,AL184               USAF,SAC,1901,D    AARAREA,VSS VIET321,000116499N1065833EJBT910AIR INTERD,ICT  B-52,D003009100 U TAPAO   19301930,MMSQ                     938301,,,,,,MB 500L,093MK82 B0131000001
20414J8020AA0301S9388SAC,14,APR,7203AIR INTERDICT   ALARC L,IGHT       0019558THTHAIL        XRAY 255,AL180               USAF,SAC,2001,D    AARAREA,VSS VIET321,000116665N1065833EJBT910AIR INTERD,ICT  B-52,D003012500 U TAPAO   20372037,MMSQ                     938301,A1166N10658E1166N10660E1166N10661E1165N10658E,,,,,BMB,004750 GP0108000000
20414J8020AA0301S9388SAC,14,APR,7203AIR INTERDICT   ALARC L,IGHT       0019558THTHAIL        XRAY 255,AL180               USAF,SAC,2001,D    AARAREA,VSS VIET321,000116665N1065833EJBT910AIR INTERD,ICT  B-52,D003012500 U TAPAO   20372037,MMSQ                     938301,,,,,,MB 500L,093MK82 B0132000000
20414J8021AA0301S9388SAC,14,APR,7203AIR INTERDICT   ALARC L,IGHT       0019559THTHAIL        XRAY 225,AL115               USAF,SAC,2101,D    AARAREA,VSS VIET321,000116333N1066333EJBT910AIR INTERD,ICT  B-52,D003009200 U TAPAO   21402140,MMSQ                     938301,A1163N10663E1161N10661E1161N10663E1161N10663E,,,,,BMB,004750 GP0090000000
20414J8021AA0301S9388SAC,14,APR,7203AIR INTERDICT   ALARC L,IGHT       0019559THTHAIL        XRAY 225,AL115               USAF,SAC,2101,D    AARAREA,VSS VIET321,000116333N1066333EJBT910AIR INTERD,ICT  B-52,D003009200 U TAPAO   21402140,MMSQ                     938301,,,,,,MB 500L,093MK82 B0192000000
20414J8022 A4301S9388SAC,14,APR,7243AIR REFUEL,THTHAIL JUSAF  YOUNG TIGER,USAF,SAC,2201,S,,000000000S0000000WJBTZP0AIR REFUEL,KC-13,5 A039181200 U TAPAO,JUSAF  JUSAF  938301,S000000S0000000W000000S0000000W,,,76,FFUELS,,
20414J8022 B4301S9388SAC,14,APR,7243AIR REFUEL,THTHAIL JUSAF  YOUNG TIGER,USAF,SAC,2201,S,,000000000S0000000WJBTZP0AIR REFUEL,KC-13,5 A030000000MTH,JUSAF  JUSAF  938300,S000000S0000000W000000S0000000W,,,,,,
20414J8022 C4301S9388SAC,14,APR,7243AIR REFUEL,THTHAIL JUSAF  YOUNG TIGER,USAF,SAC,2201,S,,000000000S0000000WJBTZP0AIR REFUEL,KC-13,5 A000000000MTH,JUSAF  JUSAF  938300,S000000S0000000W000000S0000000W,,,,,,
20414J8022 D4301S9388SAC,14,APR,7243AIR REFUEL,THTHAIL JUSAF  YOUNG TIGER,USAF,SAC,2201,S,,000000000S0000000WJBTZP0AIR REFUEL,KC-13,5 A002000000MRT,JUSAF  JUSAF  938300,S000000S0000000W000000S0000000W,,,,,,
20414J8022 E4301S9388SAC,14,APR,7243AIR REFUEL,THTHAIL JUSAF  YOUNG TIGER,USAF,SAC,2201,S,,000000000S0000000WJBTZP0AIR REFUEL,KC-13,5 A007000000MEW,JUSAF  JUSAF  938300,S000000S0000000W000000S0000000W,,,,,,
20414J8023AA0301S9398SAC,14,APR,7203AIR INTERDICT   ALARC L,IGHT       0019560THTHAIL        XRAY 250,AL125               USAF,SAC,2301,D    AARAREA,VSS VIET321,000116665N1066333EJBT910AIR INTERD,ICT  B-52,D003017800 U TAPAO   23012301,MMSQ                     939301,A1166N10663E1168N10665E1166N10665E1166N10663E,,,,,BMB,004750 GP0126000000
20414J8023AA0301S9398SAC,14,APR,7203AIR INTERDICT   ALARC L,IGHT       0019560THTHAIL        XRAY 250,AL125               USAF,SAC,2301,D    AARAREA,VSS VIET321,000116665N1066333EJBT910AIR INTERD,ICT  B-52,D003017800 U TAPAO   23012301,MMSQ                     939301,,,,,,MB 500L,093MK82 B0072000000
20415J8001AA0301S9398SAC,15,APR,7203AIR INTERDICT   ALARC L,IGHT       0019561GUGUAM         XRAY 191,AL102               USAF,SAC,101,D    ARDROAD,VSS VIET206,000144832N1075498EJBT910AIR INTERD,ICT  B-52,D003036700 ANDERSEN  00560056,MMSQ                     939301,A1448N10755E1451N10753E1451N10755E1448N10755E,,,,,BMB,004750 GP0126000000
20415J8001AA0301S9398SAC,15,APR,7203AIR INTERDICT   ALARC L,IGHT       0019561GUGUAM         XRAY 191,AL102               USAF,SAC,101,D    ARDROAD,VSS VIET206,000144832N1075498EJBT910AIR INTERD,ICT  B-52,D003036700 ANDERSEN  00560056,MMSQ                     939301,,,,,,MB 500L,093MK82 B0072000000
20415J8002AA0301S9398SAC,15,APR,7203AIR INTERDICT   ALARC L,IGHT       0019562THTHAIL        XRAY 275,AL127               USAF,SAC,201,D    AARAREA,VSS VIET101,000168665N1071333EJBT910AIR INTERD,ICT  B-52,D003010300 U TAPAO   01310131,MMSQ                     939301,A1686N10713E1688N10711E1686N10710E1685N10710E,,,,,BMB,004750 GP0126000000
20415J8002AA0301S9398SAC,15,APR,7203AIR INTERDICT   ALARC L,IGHT       0019562THTHAIL        XRAY 275,AL127               USAF,SAC,201,D    AARAREA,VSS VIET101,000168665N1071333EJBT910AIR INTERD,ICT  B-52,D003010300 U TAPAO   01310131,MMSQ                     939301,,,,,,MB 500L,093MK82 B0072000000
20415J8003AA0301S9398SAC,15,APR,7203AIR INTERDICT   ALARC L,IGHT       0019563GUGUAM         XRAY 270,AL153               USAF,SAC,301,D    AARAREA,VSS VIET101,000166665N1070833EJBT910AIR INTERD,ICT  B-52,D003026400 ANDERSEN  02370237,MMSQ                     939301,A1666N10708E1668N10706E1668N10706E1666N10708E,,,,,BMB,004750 GP0126000000
20415J8003AA0301S9398SAC,15,APR,7203AIR INTERDICT   ALARC L,IGHT       0019563GUGUAM         XRAY 270,AL153               USAF,SAC,301,D    AARAREA,VSS VIET101,000166665N1070833EJBT910AIR INTERD,ICT  B-52,D003026400 ANDERSEN  02370237,MMSQ                     939301,,,,,,MB 500L,093MK82 B0071000001
20415J8004AA0301S9398SAC,15,APR,7203AIR INTERDICT   ALARC L,IGHT       0019564THTHAIL        XRAY 290,AL179               USAF,SAC,401,D    AARAREA,VSS VIET101,000166831N1069832EJBT910AIR INTERD,ICT  B-52,D003009800 U TAPAO   04090409,MMSQ                     939301,A1668N10698E1670N10698E1668N10701E1666N10700E,,,,,BMB,004750 GP0126000000
20415J8004AA0301S9398SAC,15,APR,7203AIR INTERDICT   ALARC L,IGHT       0019564THTHAIL        XRAY 290,AL179               USAF,SAC,401,D    AARAREA,VSS VIET101,000166831N1069832EJBT910AIR INTERD,ICT  B-52,D003009800 U TAPAO   04090409,MMSQ                     939301,,,,,,MB 500L,093MK82 B0071000001
20415J8005AA0301S9398SAC,15,APR,7203AIR INTERDICT   ALARC L,IGHT       0019565THTHAIL        XRAY 280,AL103               USAF,SAC,501,D    AARAREA,VSS VIET101,001168167N1070332EJBT910AIR INTERD,ICT  B-52,D003011000 U TAPAO   05000500,MMSQ                     939301,A1681N10703E1681N10701E1683N10700E1683N10701E,FFRDLYYES,OTOTHER,010000S00000W                         0ENR,T TGT                         A,BMB,004750 GP0084000042
20415J8005AA0301S9398SAC,15,APR,7203AIR INTERDICT   ALARC L,IGHT       0019565THTHAIL        XRAY 280,AL103               USAF,SAC,501,D    AARAREA,VSS VIET101,001168167N1070332EJBT910AIR INTERD,ICT  B-52,D003011000 U TAPAO   05000500,MMSQ                     939301,,,,,,MB 500L,093MK82 B0042000024
20415J8006AA0301S9398SAC,15,APR,7203AIR INTERDICT   ALARC L,IGHT       0019566GUGUAM         XRAY 264,AL152               USAF,SAC,601,D    AARAREA,VSS VIET102,000163499N1074832EJBT910AIR INTERD,ICT  B-52,D003034000 ANDERSEN  06110611,MMSQ                     939301,A1635N10748E1635N10746E1633N10748E1633N10750E,,,,,BMB,004750 GP0124000002
20415J8006AA0301S9398SAC,15,APR,7203AIR INTERDICT   ALARC L,IGHT       0019566GUGUAM         XRAY 264,AL152               USAF,SAC,601,D    AARAREA,VSS VIET102,000163499N1074832EJBT910AIR INTERD,ICT  B-52,D003034000 ANDERSEN  06110611,MMSQ                     939301,,,,,,MB 500L,093MK82 B0072000000
20415J8007AA0301S9398SAC,15,APR,7203AIR INTERDICT   ALARC L,IGHT       0019567THTHAIL        XRAY 237,AL177               USAF,SAC,701,D    AARAREA,VSS VIET321,000116665N1065999EJBT910AIR INTERD,ICT  B-52,D003010300 U TAPAO   08090809,MMSQ                     939301,A1166N10660E1166N10660E1163N10660E1163N10660E,,,,,BMB,004750 GP0126000000
20415J8007AA0301S9398SAC,15,APR,7203AIR INTERDICT   ALARC L,IGHT       0019567THTHAIL        XRAY 237,AL177               USAF,SAC,701,D    AARAREA,VSS VIET321,000116665N1065999EJBT910AIR INTERD,ICT  B-52,D003010300 U TAPAO   08090809,MMSQ                     939301,,,,,,MB 500L,093MK82 B0072000000
20415J8008AA0301S9398SAC,15,APR,7203AIR INTERDICT   ALARC L,IGHT       0019568THTHAIL        XRAY 287,AL105               USAF,SAC,801,D    AARAREA,VSS VIET321,000116665N1065999EJBT910AIR INTERD,ICT  B-52,D003009800 U TAPAO   09010901,MMSQ                     939301,A1166N10660E1166N10661E1166N10661E1166N10660E,,,,,BMB,004750 GP0126000000
20415J8008AA0301S9398SAC,15,APR,7203AIR INTERDICT   ALARC L,IGHT       0019568THTHAIL        XRAY 287,AL105               USAF,SAC,801,D    AARAREA,VSS VIET321,000116665N1065999EJBT910AIR INTERD,ICT  B-52,D003009800 U TAPAO   09010901,MMSQ                     939301,,,,,,MB 500L,093MK82 B0072000000
20415J8009AA0301S9398SAC,15,APR,7203AIR INTERDICT   ALARC L,IGHT       0019569GUGUAM         XRAY 253,AL129               USAF,SAC,901,D    AARAREA,VSS VIET102,000116333N1065498EJBT910AIR INTERD,ICT  B-52,D003036100 ANDERSEN  10291029,MMSQ                     939301,A1163N10655E1163N10658E1163N10658E1163N10655E,,,,,BMB,004750 GP0126000000
20415J8009AA0301S9398SAC,15,APR,7203AIR INTERDICT   ALARC L,IGHT       0019569GUGUAM         XRAY 253,AL129               USAF,SAC,901,D    AARAREA,VSS VIET102,000116333N1065498EJBT910AIR INTERD,ICT  B-52,D003036100 ANDERSEN  10291029,MMSQ                     939301,,,,,,MB 500L,093MK82 B0072000000
20415J8010AA0301S9398SAC,15,APR,7203AIR INTERDICT   ALARC L,IGHT       0019570THTHAIL        XRAY 209,AL178               USAF,SAC,1001,D    AARAREA,VSS VIET101,000155833N1082166EJBT910AIR INTERD,ICT  B-52,D003009400 U TAPAO   11501150,MMSQ                     939301,A1558N10821E1556N10821E1556N10823E1556N10825E,,,,,BMB,004750 GP0126000000
20415J8010AA0301S9398SAC,15,APR,7203AIR INTERDICT   ALARC L,IGHT       0019570THTHAIL        XRAY 209,AL178               USAF,SAC,1001,D    AARAREA,VSS VIET101,000155833N1082166EJBT910AIR INTERD,ICT  B-52,D003009400 U TAPAO   11501150,MMSQ                     939301,,,,,,MB 500L,093MK82 B0072000000
20415J8011AA0301S9398SAC,15,APR,7203AIR INTERDICT   ALARC L,IGHT       0019571GUGUAM         XRAY 289,AL130               USAF,SAC,1101,D    AARAREA,VSS VIET321,000116165N1065833EJBT910AIR INTERD,ICT  B-52,D002024600 ANDERSEN  13231323,MMSQ                     939301,A1161N10658E1163N10660E1161N10660E1161N10661E,,,,,BMB,004750 GP0084000000
20415J8011AA0301S9398SAC,15,APR,7203AIR INTERDICT   ALARC L,IGHT       0019571GUGUAM         XRAY 289,AL130               USAF,SAC,1101,D    AARAREA,VSS VIET321,000116165N1065833EJBT910AIR INTERD,ICT  B-52,D002024600 ANDERSEN  13231323,MMSQ                     939301,,,,,,MB 500L,093MK82 B0048000000
20415J8011BB0301S9398SAC,15,APR,7203AIR INTERDICT   ALARC L,IGHT       0019571GUGUAM         XRAY 289,AL130               USAF,SAC,1101,D    ARDROAD,VSS VIET206,000144832N1075498EJBT910AIR INTERD,ICT  B-52,D001012300 ANDERSEN  14091409,MMSQ                     939300,A1448N10755E1451N10753E1451N10755E1448N10755E,,,,,BMB,004750 GP0042000000
20415J8011BB0301S9398SAC,15,APR,7203AIR INTERDICT   ALARC L,IGHT       0019571GUGUAM         XRAY 289,AL130               USAF,SAC,1101,D    ARDROAD,VSS VIET206,000144832N1075498EJBT910AIR INTERD,ICT  B-52,D001012300 ANDERSEN  14091409,MMSQ                     939300,,,,,,MB 500L,093MK82 B0024000000
20415J8012AA0301S9398SAC,15,APR,7203AIR INTERDICT   ALARC L,IGHT       0019572GUGUAM         XRAY 284,AL181               USAF,SAC,1201,D    AARAREA,VSS VIET321,000116831N1066499EJBT910AIR INTERD,ICT  B-52,D002022700 ANDERSEN  14471447,MMSQ                     939301,A1168N10665E1166N10666E1166N10665E1168N10665E,,,,,BMB,004750 GP0084000000
20415J8012AA0301S9398SAC,15,APR,7203AIR INTERDICT   ALARC L,IGHT       0019572GUGUAM         XRAY 284,AL181               USAF,SAC,1201,D    AARAREA,VSS VIET321,000116831N1066499EJBT910AIR INTERD,ICT  B-52,D002022700 ANDERSEN  14471447,MMSQ                     939301,,,,,,MB 500L,093MK82 B0048000000
20415J8013AA0301S9398SAC,15,APR,7203AIR INTERDICT   ALARC L,IGHT       0019573GUGUAM         XRAY 282,AL185               USAF,SAC,1301,D    AARAREA,VSS VIET207,000143333N1089666EJBT910AIR INTERD,ICT  B-52,D003034500 ANDERSEN  16061606,MMSQ                     939301,A1433N10896E1431N10896E1433N10900E1431N10900E,,,,,BMB,004750 GP0126000000
20415J8013AA0301S9398SAC,15,APR,7203AIR INTERDICT   ALARC L,IGHT       0019573GUGUAM         XRAY 282,AL185               USAF,SAC,1301,D    AARAREA,VSS VIET207,000143333N1089666EJBT910AIR INTERD,ICT  B-52,D003034500 ANDERSEN  16061606,MMSQ                     939301,,,,,,MB 500L,093MK82 B0070000002
20415J8014 A4301S9398SAC,15,APR,7243AIR REFUEL,THTHAIL JUSAF  YOUNG TIGER,USAF,SAC,1401,S,,000000000S0000000WJBTZP0AIR REFUEL,KC-13,5 A032147700 U TAPAO,JUSAF  JUSAF  939301,S000000S0000000W000000S0000000W,,,76,FFUELS,,
20415J8014 B4301S9398SAC,15,APR,7243AIR REFUEL,THTHAIL JUSAF  YOUNG TIGER,USAF,SAC,1401,S,,000000000S0000000WJBTZP0AIR REFUEL,KC-13,5 A024000000MTH,JUSAF  JUSAF  939300,S000000S0000000W000000S0000000W,,,,,,
20415J8014 C4301S9398SAC,15,APR,7243AIR REFUEL,THTHAIL JUSAF  YOUNG TIGER,USAF,SAC,1401,S,,000000000S0000000WJBTZP0AIR REFUEL,KC-13,5 A000000000MTH,JUSAF  JUSAF  939300,S000000S0000000W000000S0000000W,,,,,,
20415J8014 D4301S9398SAC,15,APR,7243AIR REFUEL,THTHAIL JUSAF  YOUNG TIGER,USAF,SAC,1401,S,,000000000S0000000WJBTZP0AIR REFUEL,KC-13,5 A003000000MRT,JUSAF  JUSAF  939300,S000000S0000000W000000S0000000W,,,,,,
20415J8014 E4301S9398SAC,15,APR,7243AIR REFUEL,THTHAIL JUSAF  YOUNG TIGER,USAF,SAC,1401,S,,000000000S0000000WJBTZP0AIR REFUEL,KC-13,5 A005000000MEW,JUSAF  JUSAF  939300,S000000S0000000W000000S0000000W,,,,,,
20415J8015AA0301S9408SAC,15,APR,7203AIR INTERDICT   ALARC L,IGHT       0019574GUGUAM         XRAY 295,AL161               USAF,SAC,1501,D    AARAREA,VSS VIET321,000116333N1065833EJBT910AIR INTERD,ICT  B-52,D003036700 ANDERSEN  18161816,MMSQ                     940301,A1163N10658E1161N10658E1163N10660E1161N10660E,,,,,BMB,004750 GP0126000000
20415J8015AA0301S9408SAC,15,APR,7203AIR INTERDICT   ALARC L,IGHT       0019574GUGUAM         XRAY 295,AL161               USAF,SAC,1501,D    AARAREA,VSS VIET321,000116333N1065833EJBT910AIR INTERD,ICT  B-52,D003036700 ANDERSEN  18161816,MMSQ                     940301,,,,,,MB 500L,093MK82 B0072000000
20415J8016AA0101S9378SAC,15,APR,7201STRIKE          ALARC L,IGHT       0019575THTHAIL        XRAY 293,FREEDOM PORVH  USAF,SAC,1601,ABLBLDG,VNN VIET0,001208665N1066499EJBT910STRIKE,B-52,D018082000 U TAPAO   19592009,PBRF TGT                 937301,A2086N10665E2088N10666E2086N10666E2086N10665E,FFRDLYNO,ASACFT SYS,010000S00000W                         0ENR,T TGT                         A,BMB,004750 GP1226000045
20415J8016AA0101S9378SAC,15,APR,7201STRIKE          ALARC L,IGHT       0019575THTHAIL        XRAY 293,FREEDOM PORVH  USAF,SAC,1601,ABLBLDG,VNN VIET0,001208665N1066499EJBT910STRIKE,B-52,D018082000 U TAPAO   19592009,PBRF TGT                 937301,,,,,,MB 500L,093MK82 B0264000031
20415J8017AA0301S9408SAC,15,APR,7203AIR INTERDICT   ALARC L,IGHT       0019576THTHAIL        XRAY 279,AL188               USAF,SAC,1701,D    AARAREA,VSS VIET206,000141665N1079165EJBT910AIR INTERD,ICT  B-52,D003010100 U TAPAO   23002300,MMSQ                     940301,A1416N10791E1416N10793E1418N10793E1418N10795E,,,,,BMB,004750 GP0194000004
20416J8001AA0301S9408SAC,16,APR,7203AIR INTERDICT   ALARC L,IGHT       0019577GUGUAM         XRAY 201,USAF,SAC,101,AARAREA,VSS VIET321,000116831N1065498EJBT910AIR INTERD,ICT  B-52,D003037300 ANDERSEN  00520052,MMSQ                     940301,A1168N10655E1166N10656E1168N10656E1168N10656E,,,,,BMB,004750 GP0126000000
20416J8001AA0301S9408SAC,16,APR,7203AIR INTERDICT   ALARC L,IGHT       0019577GUGUAM         XRAY 201,USAF,SAC,101,AARAREA,VSS VIET321,000116831N1065498EJBT910AIR INTERD,ICT  B-52,D003037300 ANDERSEN  00520052,MMSQ                     940301,,,,,,MB 500L,093MK82 B0072000000
20416J8002AA0301S9408SAC,16,APR,7203AIR INTERDICT   ALARC L,IGHT       0019578THTHAIL        XRAY 232,AL226               USAF,SAC,201,D    AARAREA,VSS VIET321,000117166N1065498EJBT910AIR INTERD,ICT  B-52,D003009200 U TAPAO   01300130,MMSQ                     940301,A1171N10655E1173N10655E1170N10655E1171N10656E,,,,,BMB,004750 GP0126000000
20416J8002AA0301S9408SAC,16,APR,7203AIR INTERDICT   ALARC L,IGHT       0019578THTHAIL        XRAY 232,AL226               USAF,SAC,201,D    AARAREA,VSS VIET321,000117166N1065498EJBT910AIR INTERD,ICT  B-52,D003009200 U TAPAO   01300130,MMSQ                     940301,,,,,,MB 500L,093MK82 B0072000000
20416J8003AA0301S9408SAC,16,APR,7203AIR INTERDICT   ALARC L,IGHT       0019579GUGUAM         XRAY 281,AL251               USAF,SAC,301,D    AARAREA,VSS VIET321,000116499N1065833EJBT910AIR INTERD,ICT  B-52,D003034500 ANDERSEN  02410241,MMSQ                     940301,A1165N10658E1173N10658E1085N10656E1085N10658E,,,,,BMB,004750 GP0126000000
20416J8003AA0301S9408SAC,16,APR,7203AIR INTERDICT   ALARC L,IGHT       0019579GUGUAM         XRAY 281,AL251               USAF,SAC,301,D    AARAREA,VSS VIET321,000116499N1065833EJBT910AIR INTERD,ICT  B-52,D003034500 ANDERSEN  02410241,MMSQ                     940301,,,,,,MB 500L,093MK82 B0072000000
20416J8004AA0301S9408SAC,16,APR,7203AIR INTERDICT   ALARC L,IGHT       0019580THTHAIL        XRAY 271,AL276               USAF,SAC,401,D    ABLBLDG,VSS VIET321,000117000N1064165EJBT910AIR INTERD,ICT  B-52,D003011300 U TAPAO   04390439,MMSQ                     940301,A1170N10641E1170N10641E1168N10641E1168N10641E,,,,,BMB,004750 GP0108000000
20416J8004AA0301S9408SAC,16,APR,7203AIR INTERDICT   ALARC L,IGHT       0019580THTHAIL        XRAY 271,AL276               USAF,SAC,401,D    ABLBLDG,VSS VIET321,000117000N1064165EJBT910AIR INTERD,ICT  B-52,D003011300 U TAPAO   04390439,MMSQ                     940301,,,,,,MB 500L,093MK82 B0132000000
20416J8005AA0301S9488SAC,16,APR,7203AIR INTERDICT   ALARC L,IGHT       0019581THTHAIL        XRAY 219,USAF,SAC,501,AARAREA,VSS VIET206,000145833N1076831EJBT910AIR INTERD,ICT  B-52,D002007000 U TAPAO   05050505,MMSQ                     948301,A1458N10768E1458N10768E1460N10770E1458N10770E,FFRDLYYES,OTOTHER,010000S00000W                         0ENR,T TGT                         A,BMB,004750 GP0084000000
20416J8005AA0301S9488SAC,16,APR,7203AIR INTERDICT   ALARC L,IGHT       0019581THTHAIL        XRAY 219,USAF,SAC,501,AARAREA,VSS VIET206,000145833N1076831EJBT910AIR INTERD,ICT  B-52,D002007000 U TAPAO   05050505,MMSQ                     948301,,,,,,MB 500L,093MK82 B0048000000
20416J8005BB0301S9488SAC,16,APR,7203AIR INTERDICT   ALARC L,IGHT       0019581THTHAIL        XRAY 219,USAF,SAC,501,ABLBLDG,VSS VIET206,000145166N1077166EJBT910AIR INTERD,ICT  B-52,D001003700 U TAPAO   05320532,MMSQ                     948300,A1451N10771E1451N10771E1453N10765E1453N10773E,,,,,BMB,004750 GP0042000000
20416J8005BB0301S9488SAC,16,APR,7203AIR INTERDICT   ALARC L,IGHT       0019581THTHAIL        XRAY 219,USAF,SAC,501,ABLBLDG,VSS VIET206,000145166N1077166EJBT910AIR INTERD,ICT  B-52,D001003700 U TAPAO   05320532,MMSQ                     948300,,,,,,MB 500L,093MK82 B0024000000
20416J8006AA0301S9408SAC,16,APR,7203AIR INTERDICT   ALARC L,IGHT       0019582GUGUAM         XRAY 244,USAF,SAC,601,AARAREA,VSS VIET206,000147832N1077500EJBT910AIR INTERD,ICT  B-52,D003034700 ANDERSEN  06100610,MMSQ                     940301,A1478N10775E1476N10775E1480N10773E1480N10776E,,,,,BMB,004750 GP0126000000
20416J8006AA0301S9408SAC,16,APR,7203AIR INTERDICT   ALARC L,IGHT       0019582GUGUAM         XRAY 244,USAF,SAC,601,AARAREA,VSS VIET206,000147832N1077500EJBT910AIR INTERD,ICT  B-52,D003034700 ANDERSEN  06100610,MMSQ                     940301,,,,,,MB 500L,093MK82 B0072000000
20416J8007AA0301S9408SAC,16,APR,7203AIR INTERDICT   ALARC L,IGHT       0019583THTHAIL        XRAY 383,AL269               USAF,SAC,701,D    AARAREA,VSS VIET321,000115332N1065999EJBT910AIR INTERD,ICT  B-52,D003009100 U TAPAO   07200720,MMSQ                     940301,A1153N10660E1153N10661E1150N10660E1150N10661E,,,,,BMB,004750 GP0126000000
20416J8007AA0301S9408SAC,16,APR,7203AIR INTERDICT   ALARC L,IGHT       0019583THTHAIL        XRAY 383,AL269               USAF,SAC,701,D    AARAREA,VSS VIET321,000115332N1065999EJBT910AIR INTERD,ICT  B-52,D003009100 U TAPAO   07200720,MMSQ                     940301,,,,,,MB 500L,093MK82 B0072000000
